# Created with Anim8or 0.95
# Object "object01":
# ComRec:
g mesh01
# No. points 531:
v -4.6022 9.5518 20.933
v -10.101 17.523 5.0469
v -1.2599 6.963 17.9434
v 10.996 24.2724 11.5507
v 11.343 23.6712 9.73332
v 10.996 10.7736 11.5507
v 11.343 11.3748 9.73332
v 0.58073 28.864 15.9517
v 2.5106 28.864 13.4255
v 10.013 24.5319 13.4255
v 9.0581 17.523 18.4273
v 10.013 10.5141 13.4255
v 0.58073 6.182 15.9517
v 2.5106 6.182 13.4255
v 11.077 12.3556 7.8585
v 10.112 14.0269 5.3323
v 11.077 22.6904 7.8585
v 10.112 21.0191 5.3323
v 0.01564 28.864 6.8936
v -3.107 6.182 6.2972
v 0.01564 6.182 6.8936
v 4.529 25.3675 2.8567
v 3.5641 11.3498 0.33000
v 4.529 9.6785 2.8567
v 10.334 17.523 15.0196
v 4.6229 27.86 11.1342
v 2.6519 28.221 7.6097
v 5.6325 26.1115 5.8479
v 5.6325 8.9345 5.8479
v 2.6519 6.825 7.6097
v 4.6229 7.186 11.1342
v 8.1784 15.4137 3.0832
v 8.1784 19.6323 3.0832
v -7.7891 24.1911 18.4981
v -1.9696 14.1115 22.944
v 5.0314 20.2573 20.718
v 5.0968 21.1775 20.084
v 2.4874 9.349 18.0906
v -3.2058 28.083 12.8489
v 4.8725 26.3858 15.9517
v 8.9095 24.5319 14.8705
v 7.9542 17.523 19.8724
v 8.9095 10.5141 14.8705
v 4.8725 8.6602 15.9517
v -0.47215 28.417 17.091
v 5.8176 17.523 21.896
v 6.1476 17.523 21.659
v -1.2021 23.1907 21.158
v 0.11342 25.1898 19.3329
v 0.10048 20.9345 22.153
v 2.9612 14.7887 21.508
v 3.6825 25.9624 17.128
v 6.4796 21.2668 19.055
v 6.4796 13.7792 19.055
v 6.2918 13.6031 19.1214
v -10.28 16.2069 5.9861
v -10.28 18.839 5.9861
v -4.2626 6.963 10.0823
v -9.5198 11.5625 17.176
v 4.3745 14.0403 0.17700
v 4.3745 21.0057 0.17700
v -3.1258 17.523 -1.971
v -2.9173 25.845 3.4555
v -0.47093 23.95 1.2674
v -1.8546 28.864 9.5759
v -2.0465 28.864 6.4998
v 3.8918 24.2638 1.1884
v 5.7876 22.7871 2.0291
v -4.8898 6.698 6.1272
v 2.8075 12.6602 -0.75800
v -10.602 23.0409 16.3492
v -4.9234 28.083 8.3522
v -10.616 22.9612 16.2349
v -11.422 20.2039 12.2172
v -9.5565 11.6517 17.0441
v -11.391 14.8292 12.2412
v -9.9028 22.8405 4.2399
v -9.374 25.2641 9.0428
v -9.9028 12.2055 4.2399
v -9.374 9.7818 9.0428
v -3.0474 25.9656 3.6619
v -4.8612 28.02 8.2303
v -4.2587 7.051 9.92346
v -4.5185 9.9408 3.7121
v 4.2517 21.0836 0.21800
v -0.25838 23.8089 1.1714
v -3.0114 17.523 -1.96
v 1.5169 17.523 -1.902
v 4.2279 14.0037 0.20000
v -1.0622 12.6293 0.55700
v -4.8726 6.792 6.0529
v -4.5367 9.9331 3.5973
v 2.6944 12.6531 -0.71500
v -1.1076 12.5893 0.53000
v -2.03 28.805 6.4341
v -1.7563 26.8868 4.2345
v 3.8078 24.2831 1.2126
v 0.97576 24.7706 1.7909
v -1.8422 28.805 9.4445
v -1.7507 26.8868 4.3238
v 5.6631 22.8378 2.0354
v 1.0308 24.7277 1.8153
v -11.332 14.7165 12.4197
v -11.358 15.0876 11.5986
v -9.8767 12.603 3.8559
v -9.8863 12.113 4.41
v -9.8767 22.443 3.8559
v -9.8863 22.933 4.41
v -11.398 20.3023 12.3692
v -11.356 19.9592 11.6002
v -4.0686 6.957 10.6017
v -4.2734 7.149 9.69754
v -9.4018 9.8657 8.8624
v -9.0553 9.6482 9.74151
v -9.1992 11.4263 17.4281
v -9.6284 11.7633 16.874
v 4.6291 20.9115 0.36200
v 4.0915 21.1786 0.24400
v 1.3526 17.523 -1.912
v 1.9968 17.523 -1.646
v 4.6307 14.1317 0.36400
v 4.0412 13.9545 0.20600
v -3.5269 17.523 -1.821
v -2.846 17.523 -1.962
v -0.56329 24.02 1.3435
v -0.10049 23.7126 1.1345
v -2.8306 25.7765 3.3717
v -3.114 26.0392 3.8212
v -0.87262 12.6711 0.54400
v -1.5524 12.7287 0.59500
v -4.5056 9.8334 3.9272
v -4.6539 10.3271 3.3645
v -4.5439 9.8171 3.6852
v -4.6526 10.3276 3.3725
v -0.96847 12.5867 0.48700
v -1.5492 12.7315 0.59700
v -1.698 28.868 9.99735
v -1.844 28.74 9.2585
v -1.9143 28.868 6.5298
v -2.0249 28.74 6.3588
v 3.9388 24.3339 1.2946
v 3.7106 24.2974 1.2289
v 6.0759 22.6692 2.2423
v 5.4977 22.9053 2.0214
v -4.7757 6.658 6.1434
v -4.8647 6.899 5.9694
v 2.8643 12.5759 -0.69000
v 2.5641 12.6535 -0.67500
v 1.1954 24.6615 1.8192
v 0.64132 24.8593 1.9144
v 1.0795 24.7518 1.7678
v 0.64512 24.8563 1.916
v -1.7683 26.9577 4.315
v -1.6628 26.644 3.9803
v -1.7566 26.9577 4.5031
v -1.6632 26.644 3.9741
v -10.419 23.1208 16.4961
v -10.649 22.8655 16.0946
v -9.3983 25.1812 8.8676
v -9.162 25.3707 9.5851
v -4.8166 28.087 8.6514
v -4.8032 27.951 8.0667
v -11.373 15.0945 11.6039
v -11.524 14.8079 12.4909
v -9.9527 12.0356 4.2657
v -9.8817 12.5971 3.845
v -9.9527 23.0104 4.2657
v -9.8817 22.4489 3.845
v -11.366 19.9544 11.6094
v -11.524 20.2383 12.4913
v -4.3905 6.961 9.75029
v -4.0775 6.943 10.6057
v -9.071 9.6399 9.73357
v -9.6091 9.7558 8.7572
v -9.7286 11.6466 17.0183
v -9.2068 11.4175 17.439
v 4.2147 21.0628 0.05300
v 4.6384 20.9028 0.34800
v 1.9994 17.523 -1.661
v 1.3879 17.523 -2.106
v 4.2151 13.9825 0.05300
v 4.6438 14.1338 0.35200
v -2.8689 17.523 -2.07
v -3.5286 17.523 -1.829
v -0.29431 23.8128 1.1078
v -0.57792 24.0275 1.3415
v -3.0953 25.9825 3.6131
v -2.8292 25.7722 3.356
v -1.5592 12.7127 0.59500
v -0.96275 12.4593 0.55200
v -4.6469 10.3236 3.3426
v -4.4128 9.7871 3.6367
v -4.6427 10.3254 3.3689
v -4.4125 9.7872 3.6387
v -1.5487 12.7219 0.60200
v -0.96196 12.46 0.55200
v -1.9585 28.865 9.3067
v -1.7066 28.877 10.001
v -2.1346 28.865 6.4841
v -1.9226 28.877 6.5392
v 3.8661 24.2165 1.1169
v 3.9506 24.3278 1.2861
v 5.6057 22.8615 1.8883
v 6.0841 22.6659 2.2322
v -4.9661 6.718 6.1213
v -4.7834 6.644 6.1548
v 2.7773 12.7161 -0.80500
v 2.8804 12.5807 -0.70000
v 0.63051 24.8657 1.9086
v 1.0523 24.7467 1.7426
v 0.64314 24.8559 1.9142
v 1.0532 24.7459 1.743
v -1.6648 26.6436 3.9785
v -1.795 26.9521 4.2906
v -1.6661 26.6436 3.958
v -1.7951 26.9521 4.289
v -10.722 22.9933 16.2597
v -10.425 23.1304 16.5086
v -9.1709 25.3808 9.5871
v -9.5162 25.3137 8.8934
v -4.9976 28.084 8.1628
v -4.8313 28.097 8.6587
v -10.558 23.1623 16.5278
v -10.659 22.8686 16.097
v -9.4247 11.4202 17.3936
v -9.6454 11.7628 16.8714
v -11.526 15.0604 11.8937
v -11.345 14.7145 12.442
v -11.482 20.0034 11.9272
v -11.408 20.3057 12.3938
v -9.9419 22.6658 3.8904
v -9.8913 22.9498 4.4126
v -9.3369 25.4412 9.3911
v -9.4115 25.1865 8.8529
v -9.3378 9.605 9.3898
v -9.4231 9.8624 8.8359
v -9.9419 12.3802 3.8904
v -9.8913 12.0962 4.4126
v -2.916 25.8163 3.3288
v -3.1205 26.0422 3.818
v -4.9948 28.171 8.5624
v -4.8167 27.957 8.06
v -4.2412 6.84 10.374
v -4.2865 7.14 9.68036
v -4.5365 10.1498 3.2588
v -4.4967 9.82 3.9192
v 1.8455 17.523 -1.9
v 1.3412 17.523 -1.931
v 4.5798 20.8848 0.14700
v 4.0878 21.1766 0.22800
v -0.58709 24.0073 1.24
v -0.10229 23.7116 1.1267
v -3.3397 17.523 -1.965
v -2.8319 17.523 -1.973
v -1.4466 12.5275 0.58300
v -0.86463 12.6559 0.54400
v 4.6131 14.1036 0.17200
v 4.0399 13.9523 0.19200
v -4.898 6.562 6.2325
v -4.8739 6.892 5.9761
v 2.9722 12.6584 -0.80700
v 2.5723 12.6598 -0.68400
v -1.3832 12.5834 0.62100
v -0.95594 12.5755 0.48900
v -4.5111 10.1605 3.4189
v -4.5333 9.8045 3.6887
v -1.737 26.748 4.0751
v -1.7739 26.9656 4.3221
v 0.77049 24.8057 1.8323
v 1.0889 24.748 1.7615
v 4.0147 24.2468 1.1695
v 3.7164 24.2908 1.2194
v -2.0511 28.945 6.5949
v -2.0352 28.746 6.3638
v -1.7447 26.748 3.9506
v -1.7628 26.9656 4.5014
v -1.8501 28.945 9.81607
v -1.8554 28.746 9.2448
v 6 22.7004 2.0498
v 5.492 22.9077 2.0068
v 0.69377 24.8655 1.7983
v 1.1994 24.6619 1.8105
v -11.538 14.7875 12.5531
v -11.252 15.267 11.0769
v -9.8226 12.9859 3.5896
v -9.9597 11.9897 4.2958
v -11.537 20.259 12.5542
v -11.252 19.7789 11.0767
v -9.8226 22.0601 3.5896
v -9.9597 23.0563 4.2958
v -9.6491 9.7601 8.684
v -8.732 9.6035 10.3526
v -3.8477 6.963 11.1676
v -4.4177 6.959 9.68391
v -8.8405 11.2852 17.6944
v -9.7718 11.6622 16.9882
v 1.3452 17.523 -2.142
v 2.3604 17.523 -1.361
v 4.8995 20.8164 0.57900
v 4.1839 21.073 0.02600
v 4.8993 14.2299 0.57900
v 4.1849 13.9711 0.02600
v -0.78363 24.1924 1.5476
v -0.27002 23.7934 1.0835
v -3.965 17.523 -1.65
v -2.8174 17.523 -2.091
v -2.6041 25.6025 3.1759
v -3.1219 26.0026 3.6344
v -0.92468 12.4409 0.54700
v -1.8815 12.8684 0.63400
v -4.3985 9.7506 3.6516
v -4.7685 10.6321 3.2166
v -4.3976 9.751 3.6567
v -4.7686 10.632 3.216
v -0.92263 12.4427 0.54900
v -1.8817 12.8682 0.63400
v -1.7615 28.863 6.5538
v -2.1536 28.866 6.4824
v -1.5181 28.863 10.4561
v -1.9808 28.866 9.2529
v 3.9794 24.4164 1.419
v 3.8627 24.206 1.1012
v 6.3844 22.5431 2.4855
v 5.5702 22.876 1.8584
v -4.6434 6.627 6.1503
v -4.9826 6.72 6.1218
v 2.9115 12.4791 -0.60700
v 2.7736 12.7281 -0.81600
v 1.0888 24.7342 1.7223
v 0.32131 24.9711 2.0803
v -1.8121 26.9812 4.3202
v -1.5202 26.3975 3.7271
v 1.0913 24.7323 1.7234
v 0.32102 24.9713 2.0802
v -1.8123 26.9812 4.3162
v -1.5202 26.3975 3.7275
v -10.214 23.1994 16.6455
v -10.747 22.9851 16.2435
v -9.5429 25.3128 8.8398
v -8.9448 25.3885 10.0404
v -4.6858 28.083 8.9728
v -5.0148 28.086 8.1257
v -9.7908 12.0585 16.4293
v -9.4075 11.3853 17.4459
v -10.719 22.6081 15.7205
v -10.551 23.1931 16.5723
v -11.156 14.4225 12.8553
v -11.548 15.0949 11.8449
v -11.319 20.5568 12.7307
v -11.493 19.9738 11.8874
v -9.835 23.1502 4.8547
v -9.9485 22.6421 3.8381
v -9.4413 24.9537 8.4284
v -9.3334 25.4687 9.4412
v -9.441 10.0922 8.4288
v -9.3357 9.5778 9.4379
v -9.835 11.8958 4.8547
v -9.9485 12.4039 3.8381
v -3.2794 26.2286 4.2469
v -2.8972 25.7943 3.2781
v -4.6286 27.757 7.6457
v -5.017 28.194 8.6113
v -4.2915 7.421 9.1288
v -4.2406 6.807 10.4392
v -4.4856 9.5713 4.5076
v -4.5378 10.1792 3.1893
v 0.93752 17.523 -1.909
v 1.8931 17.523 -1.902
v 3.6745 21.4325 0.34100
v 4.6287 20.8546 0.13300
v -2.4321 17.523 -1.952
v -3.3869 17.523 -1.968
v 0.31908 23.46 1.0496
v -0.63686 24.037 1.2491
v -0.38517 12.8058 0.51200
v -1.5033 12.5098 0.58700
v 3.5507 13.8278 0.24600
v 4.6709 14.1183 0.16600
v 2.2073 12.6447 -0.55500
v 3.0153 12.6602 -0.82200
v -4.8293 7.194 5.7383
v -4.9033 6.526 6.2606
v -0.62130 12.5978 0.37100
v -1.4227 12.5808 0.63500
v -4.5801 9.5313 3.9116
v -4.5056 10.1928 3.3925
v 1.338 24.7083 1.717
v 0.74107 24.8104 1.8376
v -1.7912 27.1322 4.5159
v -1.7349 26.7283 4.0522
v 3.445 24.3457 1.2869
v 4.0467 24.2404 1.1615
v -1.9946 28.559 6.1523
v -2.0559 28.967 6.6198
v -1.7622 27.1322 4.9794
v -1.7448 26.7283 3.8941
v -1.8301 28.559 8.7894
v -1.8531 28.967 9.86986
v 5.0703 23.0797 2.0077
v 6.0498 22.6801 2.0497
v 1.6237 24.4858 1.8437
v 0.64365 24.8863 1.7944
v -9.8762 12.553 3.9178
v -9.8908 12.536 3.8861
v -11.351 15.0463 11.6837
v -11.393 15.0663 11.6993
v -9.8838 12.1699 4.3507
v -9.8981 12.121 4.3582
v -11.331 14.7564 12.3261
v -11.368 14.7504 12.3909
v -9.8838 22.8761 4.3507
v -9.8981 22.925 4.3582
v -11.391 20.2651 12.2803
v -11.418 20.2748 12.3521
v -9.8762 22.493 3.9178
v -9.8908 22.51 3.8861
v -11.358 19.997 11.6786
v -11.385 19.9829 11.7054
v -4.2478 7.131 9.79834
v -4.2857 7.106 9.74836
v -9.3586 9.8437 8.9635
v -9.4206 9.8342 8.8862
v -4.0876 6.981 10.505
v -4.1133 6.94 10.5165
v -9.0871 9.6737 9.65109
v -9.1327 9.6496 9.628
v -9.2422 11.4646 17.3662
v -9.2642 11.439 17.3979
v -9.5778 11.7278 16.9333
v -9.6273 11.7265 16.9258
v 4.1494 21.151 0.26200
v 4.1386 21.1451 0.21500
v 1.4242 17.523 -1.878
v 1.391 17.523 -1.934
v 4.5694 20.9424 0.35400
v 4.5965 20.917 0.31200
v 1.9279 17.523 -1.67
v 1.9356 17.523 -1.712
v 4.5644 14.1123 0.35100
v 4.6026 14.1184 0.31700
v 4.1039 13.9738 0.22700
v 4.1 13.9677 0.18500
v -2.9223 17.523 -1.944
v -2.8812 17.523 -1.976
v -0.14883 23.7454 1.159
v -0.15406 23.7426 1.1363
v -3.4544 17.523 -1.834
v -3.4594 17.523 -1.857
v -0.50990 23.9852 1.322
v -0.55246 24.0072 1.3162
v -2.861 25.8055 3.424
v -2.8569 25.7931 3.3784
v -3.0821 26.0105 3.7747
v -3.1008 26.0193 3.7653
v -1.4785 12.7276 0.58900
v -1.4983 12.6811 0.59100
v -0.94688 12.6819 0.55000
v -0.92366 12.6377 0.54700
v -4.524 9.8896 3.8702
v -4.4982 9.8507 3.847
v -4.6404 10.276 3.4307
v -4.62 10.2658 3.3669
v -1.488 12.7191 0.58400
v -1.4866 12.6913 0.59800
v -4.6442 10.2744 3.4066
v -4.6153 10.2678 3.3964
v -1.0337 12.6054 0.49800
v -0.99722 12.5729 0.50400
v -4.5587 9.8749 3.6511
v -4.5276 9.8383 3.6613
v -1.825 28.752 9.3408
v -1.8584 28.769 9.301
v -2.01 28.752 6.3754
v -2.04 28.769 6.3897
v -1.7107 28.851 9.91818
v -1.7359 28.879 9.92876
v -1.9234 28.851 6.5088
v -1.9475 28.879 6.5363
v 3.733 24.3033 1.2387
v 3.7496 24.2841 1.2112
v 3.9111 24.3319 1.2902
v 3.9453 24.3141 1.2657
v 5.5606 22.8797 2.0492
v 5.5439 22.8865 2.0069
v 6.0123 22.6952 2.222
v 6.036 22.6855 2.1928
v -4.7828 6.688 6.1215
v -4.805 6.648 6.1548
v -4.8525 6.876 5.9857
v -4.8793 6.855 6.0053
v 2.5933 12.6434 -0.67400
v 2.617 12.6615 -0.70000
v 2.8276 12.5827 -0.68500
v 2.8744 12.5964 -0.71400
v 1.1357 24.6822 1.832
v 1.1472 24.6836 1.8065
v 0.70318 24.8364 1.9061
v 0.67174 24.8551 1.8893
v 1.0307 24.764 1.7854
v 1.0582 24.7529 1.767
v -1.7555 26.9221 4.2774
v -1.7718 26.945 4.2982
v 0.69161 24.8454 1.901
v 0.68585 24.8441 1.8955
v -1.6733 26.6773 4.0162
v -1.6792 26.676 4.0109
v -1.6722 26.6773 4.035
v -1.6806 26.676 3.988
v -1.7448 26.9221 4.4478
v -1.7628 26.945 4.4426
v -10.621 22.8915 16.1363
v -10.652 22.9006 16.1433
v -10.442 23.0908 16.4499
v -10.458 23.1189 16.4861
v -9.3693 25.1996 8.9479
v -9.4077 25.215 8.9053
v -9.1842 25.3476 9.5087
v -9.2101 25.3767 9.5144
v -4.8107 28.07 8.5874
v -4.8534 28.099 8.6085
v -4.8005 27.963 8.1305
v -4.8396 27.982 8.111
v -10.669 16.8701 8.0207
v -10.669 18.1759 8.0207
v -9.4733 9.7475 9.0676
v 1.5645 17.523 -1.969
v -1.109 12.4997 0.58200
v -4.4403 9.9193 3.562
v 0.81564 24.85 1.8813
v -1.6643 26.771 4.0995
v -9.4133 25.3137 9.1556

# No. normals 1965:
vn 0.98226 -0.00004 0.18753
vn 0.49117 0.85063 -0.18755
vn 0.49117 -0.85063 -0.18755
vn 0.93416 0 -0.35685
vn 0 -1 0
vn 0.64550 -0.49999 -0.57736
vn 0.11040 -0.80903 -0.57730
vn 0.99008 0 -0.14047
vn 0.88002 -0.19056 0.43503
vn 0.93287 0.08802 0.34928
vn 0.31623 0.94096 -0.12079
vn 0.35951 0.86583 -0.34799
vn 0.57351 0.72004 -0.39067
vn 0.49506 0.85736 0.14090
vn 0.60489 -0.66711 -0.43482
vn 0.35951 -0.86583 -0.34799
vn 0.31623 -0.94096 -0.12079
vn 0.48617 -0.87134 0.06638
vn 0.75829 0 -0.65192
vn 0.30346 0.52588 0.79458
vn 0.30355 -0.52576 0.79463
vn 0.46713 0.80898 0.35686
vn 0.75587 0.30896 0.57724
vn 0.75577 -0.30903 0.57733
vn 0.46715 -0.80901 0.35675
vn 0.39012 0.67560 0.62559
vn 0.50960 0.46331 0.72502
vn 0.62067 -0.40987 0.66841
vn 0.39126 -0.65441 0.64704
vn -0.33870 0.20903 0.91738
vn -0.08090 0.85025 0.52013
vn 0.33476 0.57783 0.74435
vn 0.28325 0.03125 0.95854
vn 0.37717 -0.50424 0.77684
vn 0.64545 0.39673 0.65268
vn 0.60563 -0.41749 0.67744
vn 0.47069 0.56073 0.68119
vn 0.45123 -0.56993 0.68671
vn -0.82938 0.20934 0.51798
vn -0.38011 0.27162 0.88416
vn 0.44490 0.56227 0.69708
vn 0.44490 -0.56227 0.69708
vn -0.98232 0 -0.18722
vn -0.49111 -0.85066 0.18760
vn 0.60695 0 -0.79474
vn -0.59517 0.54392 -0.59155
vn -0.59657 -0.54086 -0.59294
vn 0 1 0
vn 0.11026 0.80899 -0.57739
vn 0.64550 0.50001 -0.57734
vn -0.28595 -0.95201 0.10913
vn 0.64226 -0.23494 -0.72960
vn 0.65054 0.25383 -0.71580
vn -0.12616 0.67574 -0.72626
vn -0.12629 -0.67565 -0.72633
vn -0.60707 0 0.79465
vn -0.49111 0.85066 0.18759
vn -0.28583 0.95204 0.10918
vn -0.96697 -0.07312 0.24417
vn -0.93880 0.33785 -0.06712
vn -0.90861 -0.41079 0.07528
vn -0.39336 0.76996 -0.50242
vn -0.39042 -0.84086 -0.37487
vn 0.08965 0.45780 -0.88453
vn 0.05374 -0.43971 -0.89653
vn -0.24449 -0.58087 -0.77641
vn -0.00459 0.75338 -0.65757
vn -0.10110 0.93106 -0.35058
vn 0.27233 0.57792 -0.76932
vn -0.96730 0.21208 0.13913
vn -0.22959 0.71098 -0.66468
vn -0.97591 -0.20943 0.06120
vn -0.25614 -0.70485 -0.66150
vn -0.96093 -0.26239 -0.08815
vn -0.98028 0.13928 -0.14015
vn -0.99872 -0.01224 -0.04908
vn -0.45558 -0.88613 -0.08498
vn -0.74686 -0.65150 0.13319
vn 0.33600 0.27884 -0.89964
vn 0.36928 -0.25258 -0.89433
vn -0.17542 0.50161 -0.84712
vn -0.36682 0.68372 -0.63085
vn -0.10644 -0.49013 -0.86513
vn -0.35175 -0.69820 -0.62353
vn -0.28449 -0.54407 -0.78933
vn -0.78728 0.61464 0.04911
vn 0.05297 0.78342 -0.61923
vn 0.29625 -0.15610 -0.94227
vn -0.95798 -0.23281 0.16755
vn 0.08381 0.49175 -0.86670
vn 0.46833 0.41921 -0.77777
vn 0.01188 0.57438 -0.81850
vn -0.06373 0.71804 -0.69308
vn -0.27950 0.80340 -0.52577
vn -0.19826 -0.62030 -0.75889
vn -0.85509 -0.04233 0.51675
vn -0.78705 0.61391 0.06050
vn -0.53656 0.84261 -0.04583
vn -0.16449 0.95989 -0.22704
vn 0.00714 -0.58659 0.80985
vn -0.98063 -0.10929 0.16256
vn -0.36461 -0.76783 -0.52677
vn 0.92517 0.37483 -0.05970
vn 0.98364 0.03098 0.17747
vn 0.98291 -0.01330 0.18363
vn 0.98433 -0.00001 0.17636
vn 0.49066 0.85625 -0.16152
vn 0.51450 0.83749 -0.18414
vn -0.57920 -0.03194 0.81456
vn -0.58828 0.02114 0.80838
vn 0.29248 -0.52293 0.80062
vn 0.31299 -0.55031 0.77408
vn 0.28002 0.52244 0.80538
vn 0.31117 0.54433 0.77902
vn 0.30188 0.52728 0.79426
vn 0.05744 -0.99834 -0.00358
vn -0.10380 -0.80635 0.58226
vn -0.63440 -0.46131 0.62027
vn 0.39189 0.91170 -0.12340
vn -0.60109 0.15090 0.78480
vn -0.63127 -0.25807 0.73137
vn 0.11061 -0.66138 0.74185
vn 0.11897 -0.68088 0.72266
vn 0.15058 -0.69324 0.70480
vn 0.13501 0.66935 0.73058
vn 0.64077 0.00566 -0.76771
vn 0.52924 -0.83042 -0.17410
vn 0.49760 -0.85151 -0.16532
vn 0.27155 -0.96017 -0.06589
vn 0.95896 0.07234 -0.27415
vn 0.95107 0.00805 -0.30888
vn 0.93990 -0.33465 0.06775
vn 0.93019 -0.36449 0.04356
vn 0.88984 0.44892 -0.08155
vn 0.94496 0.31705 0.08086
vn 0.40903 -0.81769 0.40507
vn 0.51162 -0.71005 0.48382
vn 0.39532 0.85220 0.34274
vn 0.38963 0.83311 0.39257
vn -0.05390 -0.47765 0.87689
vn -0.05102 -0.42917 0.90178
vn -0.03864 0.44665 0.89388
vn -0.08999 0.45785 0.88446
vn 0.24034 0.58455 0.77494
vn 0.25121 0.57488 0.77872
vn 0.01157 -0.74944 0.66197
vn -0.00245 -0.75728 0.65309
vn 0.30032 -0.81198 0.50050
vn 0.10117 -0.93979 0.32643
vn -0.23001 -0.60042 0.76589
vn -0.18191 -0.39788 0.89922
vn 0.97504 -0.16950 -0.14342
vn 0.97306 -0.18151 -0.14215
vn 0.19970 -0.69755 0.68815
vn 0.20787 -0.69946 0.68378
vn 0.97066 0.23285 -0.06009
vn 0.98671 0.15035 -0.06158
vn 0.27266 0.71579 0.64288
vn 0.21757 0.67866 0.70149
vn 0.14497 0.48900 -0.86015
vn -0.93397 -0.31399 0.17064
vn -0.41744 -0.73584 -0.53319
vn -0.89788 -0.43654 0.05694
vn -0.98197 0.00384 -0.18900
vn -0.98213 -0.00176 -0.18818
vn -0.98190 -0.00001 -0.18941
vn -0.49147 -0.84967 0.19111
vn -0.48774 -0.85249 0.18806
vn 0.61047 -0.00445 -0.79203
vn 0.60975 0.00318 -0.79259
vn -0.30510 0.52590 -0.79395
vn -0.30215 0.52259 -0.79725
vn -0.30714 -0.52605 -0.79306
vn -0.30288 -0.52306 -0.79666
vn -0.30373 -0.52546 -0.79475
vn 0.00774 0.99997 -0.00048
vn 0.11113 0.80939 -0.57666
vn 0.64675 0.50483 -0.57172
vn -0.27126 -0.95652 0.10720
vn 0.64746 -0.24667 -0.72108
vn 0.65140 0.23299 -0.72207
vn -0.12840 0.67731 -0.72440
vn -0.12723 0.67497 -0.72679
vn -0.12308 0.67351 -0.72886
vn -0.12395 -0.67732 -0.72517
vn -0.60231 0.00063 0.79826
vn -0.48583 0.85331 0.18927
vn -0.49028 0.85047 0.19061
vn -0.28717 0.95096 0.11490
vn -0.96713 -0.07570 0.24274
vn -0.93062 0.00730 0.36591
vn -0.93027 0.36218 -0.05844
vn -0.94510 0.32077 -0.06242
vn -0.91404 -0.39736 0.08149
vn -0.93480 -0.34826 -0.06970
vn -0.40322 0.83577 -0.37270
vn -0.52582 0.67533 -0.51714
vn -0.38329 -0.84200 -0.37964
vn -0.39076 -0.84169 -0.37265
vn 0.00636 0.49545 -0.86861
vn 0.06450 0.41987 -0.90529
vn 0.05540 -0.43678 -0.89786
vn 0.05936 -0.47123 -0.88001
vn -0.24531 -0.58012 -0.77671
vn -0.24328 -0.58197 -0.77597
vn -0.00379 0.75382 -0.65707
vn -0.00537 0.75296 -0.65805
vn -0.36988 0.78457 -0.49763
vn -0.08691 0.93137 -0.35355
vn 0.21361 0.62342 -0.75214
vn 0.21353 0.41358 -0.88507
vn -0.96616 0.21757 0.13859
vn -0.96657 0.21560 0.13879
vn 0.23319 -0.71229 0.66202
vn -0.23244 0.71251 -0.66204
vn 0.97656 0.20639 -0.06115
vn -0.97448 -0.21608 0.06081
vn 0.25438 0.70394 0.66314
vn -0.26085 -0.70833 -0.65592
vn 0.29044 -0.89258 0.34490
vn -0.93914 0.23642 -0.24924
vn -0.93777 -0.23503 -0.25563
vn 0.29181 0.89241 0.34418
vn 0.70500 -0.00203 0.70920
vn -0.93651 -0.01311 -0.35040
vn -0.43776 -0.62620 0.64517
vn 0.01760 -0.28196 -0.95926
vn -0.82944 0.54111 -0.13866
vn -0.00911 -0.97341 0.22888
vn 0.82664 -0.54958 -0.12097
vn -0.73889 0.66007 -0.13546
vn -0.42308 -0.68112 -0.59756
vn 0.82817 0.53858 -0.15512
vn -0.51174 0.55328 -0.65727
vn 0.28602 0.31470 -0.90508
vn -0.42299 0.86403 -0.27300
vn 0.17160 -0.52550 -0.83331
vn 0.93891 0.27709 -0.20411
vn -0.87488 -0.44694 -0.18662
vn -0.13947 -0.11014 -0.98408
vn -0.39719 -0.91752 0.01968
vn 0.39437 0.42909 0.81262
vn -0.32118 -0.50807 -0.79919
vn 0.48161 0.87587 -0.03004
vn -0.73385 -0.67777 0.04577
vn 0.28009 0.85822 -0.43013
vn -0.27690 0.55127 -0.78704
vn 0.64548 0.75171 -0.13521
vn -0.55380 -0.81310 -0.17938
vn -0.83115 0.54785 0.09513
vn 0.59749 -0.80083 -0.04105
vn 0.64209 -0.76481 0.05286
vn -0.47053 0.79443 -0.38404
vn -0.30823 0.79938 -0.51574
vn 0.87012 -0.29921 -0.39162
vn -0.51167 0.83910 -0.18469
vn 0.45410 -0.03629 -0.89021
vn -0.34064 0.48810 -0.80357
vn 0.23636 0.84961 -0.47149
vn -0.48466 0.83204 -0.26985
vn 0.39273 0.10114 -0.91407
vn -0.35287 -0.47519 -0.80603
vn 0.63470 -0.77165 0.04136
vn -0.15099 0.05527 0.98699
vn -0.93939 -0.12219 -0.32034
vn 0.33462 0.87938 0.33871
vn -0.73733 -0.59279 -0.32395
vn -0.31940 0.20315 -0.92559
vn -0.34638 0.73806 0.57904
vn 0.22253 0.51343 -0.82878
vn -0.39537 0.12087 0.91054
vn 0.67100 -0.30626 -0.67525
vn 0.34334 0.21666 -0.91388
vn -0.18915 -0.97721 0.09638
vn -0.77380 -0.61199 0.16337
vn -0.59830 -0.36560 0.71300
vn -0.51154 -0.81393 -0.27539
vn -0.22419 0.97446 0.01312
vn -0.79065 -0.61029 0.04928
vn -0.20476 -0.61384 0.76241
vn -0.93452 -0.29146 0.20426
vn 0.43584 0.80563 0.40126
vn 0.87505 0.48204 -0.04374
vn -0.98224 -0.00050 -0.18763
vn -0.98227 0.00017 -0.18748
vn -0.98229 -0.00001 -0.18739
vn 0.49117 0.85059 -0.18776
vn 0.49061 0.85093 -0.18766
vn -0.60777 0.00080 0.79411
vn -0.60705 0.00012 0.79466
vn 0.30388 -0.52585 0.79444
vn 0.52447 -0.25811 0.81136
vn 0.30445 0.52588 0.79421
vn 0.22382 0.60204 -0.76645
vn 0.30359 0.52565 0.79469
vn -0.00355 -0.999994 0.00022
vn -0.11030 -0.80905 0.57729
vn -0.64566 -0.50066 0.57659
vn 0.28465 0.95242 -0.10896
vn -0.64335 0.23740 0.72783
vn -0.64939 -0.23635 0.72280
vn 0.12645 -0.67603 0.72594
vn 0.12655 -0.67548 0.72644
vn 0.12553 -0.67537 0.72672
vn 0.12483 0.67669 0.72561
vn 0.60693 0 -0.79476
vn 0.49086 -0.85079 -0.18765
vn 0.49101 -0.85061 -0.18807
vn 0.28593 -0.95198 -0.10947
vn 0.96803 0.06897 -0.24117
vn 0.93478 0.00381 -0.35520
vn 0.93237 -0.35680 0.05819
vn 0.94375 -0.32501 0.06082
vn 0.90378 0.42310 -0.06447
vn 0.94001 0.33488 0.06503
vn 0.42276 -0.82723 0.37009
vn 0.49291 -0.70315 0.51245
vn 0.38581 0.84236 0.37628
vn 0.39045 0.84101 0.37449
vn -0.01051 -0.49325 0.86983
vn -0.06667 -0.42541 0.90254
vn -0.05603 0.44305 0.89474
vn -0.06216 0.46964 0.88067
vn 0.24405 0.58122 0.77628
vn 0.24357 0.58173 0.77606
vn 0.00458 -0.75338 0.65757
vn 0.00470 -0.75332 0.65764
vn 0.26546 -0.83560 0.48094
vn 0.10070 -0.93080 0.35139
vn -0.20265 -0.60634 0.76895
vn -0.21185 -0.41539 0.88463
vn 0.96706 -0.21321 -0.13903
vn 0.96708 -0.21305 -0.13913
vn 0.22968 -0.71116 0.66445
vn 0.23037 -0.71139 0.66397
vn 0.97595 0.20924 -0.06120
vn 0.97577 0.21014 -0.06087
vn 0.25615 0.70531 0.66100
vn 0.25721 0.70589 0.65997
vn 0.97621 0.17247 0.13142
vn 0.98382 0.10674 0.14391
vn 0.98230 -0.11273 0.14959
vn 0.97225 -0.20006 0.12129
vn 0.999691 0.00144 0.02481
vn 0.99723 0.01245 0.07331
vn 0.46329 0.88529 0.04043
vn 0.46083 0.88321 0.08701
vn 0.75891 0.63752 -0.13273
vn 0.68014 0.71739 -0.15089
vn -0.38854 -0.23386 0.89126
vn -0.31465 -0.29161 0.90330
vn -0.27279 0.32557 0.90531
vn -0.37519 0.24666 0.89352
vn 0.19795 -0.50668 0.83910
vn 0.05825 -0.45850 0.88679
vn 0.38108 -0.72072 0.57908
vn 0.36087 -0.66247 0.65644
vn 0.15333 0.49525 0.85512
vn 0.14166 0.49915 0.85486
vn 0.34409 0.67021 0.65759
vn 0.38281 0.76743 0.51431
vn 0.27865 0.54960 0.78759
vn 0.28859 0.54025 0.79047
vn 0.65390 -0.75548 -0.04079
vn 0.90764 -0.41591 -0.05662
vn -0.06107 -0.78728 0.61356
vn -0.04322 -0.77861 0.62602
vn -0.40197 0.00526 0.91564
vn -0.16996 0.31364 0.93421
vn 0.98014 0.11298 -0.16300
vn 0.91531 0.36526 -0.16967
vn -0.17263 -0.41040 0.89542
vn 0.00729 -0.56652 0.82401
vn -0.37092 -0.51688 0.77152
vn -0.50022 -0.38896 0.77362
vn 0.00809 -0.59073 0.80683
vn -0.06788 -0.49692 0.86514
vn 0.07392 -0.71149 0.69880
vn 0.05395 -0.72417 0.68750
vn 0.26560 -0.76936 0.58099
vn 0.25157 -0.78847 0.56126
vn 0.21254 0.60846 0.76459
vn 0.19077 0.62640 0.75580
vn 0.81924 0.03569 -0.57234
vn 0.87945 0.05404 -0.47292
vn 0.74243 -0.66462 -0.08412
vn 0.79805 -0.60049 -0.05034
vn 0.54917 -0.79375 0.26147
vn 0.53037 -0.83695 0.13497
vn 0.12678 -0.95572 0.26555
vn 0.18773 -0.96671 0.17387
vn 0.06294 -0.55730 0.82792
vn -0.01654 -0.54918 0.83554
vn 0.98581 0.05374 -0.15900
vn 0.97452 0.15244 -0.16457
vn 0.35368 0.76203 0.54241
vn 0.37702 0.77386 0.50892
vn -0.93052 -0.36130 0.06004
vn 0.91851 0.39117 -0.05768
vn 0.98060 -0.02179 0.19482
vn -0.98093 0.01580 -0.19372
vn -0.98110 -0.01645 -0.19280
vn 0.98062 0.02187 0.19470
vn 0.97561 -0.00022 0.21952
vn -0.98086 0.00163 -0.19470
vn -0.49318 -0.83997 0.22634
vn 0.49309 0.83975 -0.22735
vn 0.44950 0.87215 -0.19313
vn -0.46165 -0.86611 0.19165
vn 0.64192 -0.04627 -0.76537
vn -0.64801 0.05422 0.75970
vn -0.65252 -0.06044 0.75536
vn 0.63786 0.04135 -0.76904
vn -0.31853 0.52804 -0.78722
vn 0.32059 -0.52828 0.78622
vn 0.29172 -0.49302 0.81965
vn -0.28977 0.49433 -0.81956
vn 0.32072 0.52772 0.78654
vn -0.32564 -0.52833 -0.78411
vn -0.29636 -0.50229 -0.81233
vn 0.28109 0.45505 0.84494
vn 0.29527 0.53386 0.79235
vn -0.30476 -0.52452 -0.79498
vn 0.08039 0.99675 -0.00501
vn -0.05287 -0.99860 0.00330
vn 0.11446 0.81069 -0.57417
vn -0.12013 -0.81300 0.56973
vn 0.65457 0.53787 -0.53127
vn -0.65743 -0.55207 0.51284
vn 0.11735 0.98945 -0.08500
vn -0.18126 -0.97888 0.09451
vn 0.67945 -0.32634 -0.65716
vn -0.69133 0.36075 0.62604
vn -0.67756 -0.19870 0.70812
vn 0.66953 0.21209 -0.71186
vn -0.14922 0.69251 -0.70581
vn 0.15191 -0.69605 0.70174
vn -0.13491 0.66941 -0.73054
vn 0.13893 -0.66645 0.73249
vn 0.10190 -0.65687 0.74709
vn -0.09917 0.65180 -0.75188
vn 0.10662 0.68955 0.71634
vn -0.11313 -0.68501 -0.71970
vn -0.56491 0.00667 0.82512
vn 0.54570 -0.00825 -0.83794
vn -0.44300 0.87313 0.20347
vn 0.43875 -0.87518 -0.20386
vn 0.47264 -0.84065 -0.26443
vn -0.47700 0.84446 0.24364
vn 0.29496 -0.94522 -0.13984
vn -0.30722 0.93587 0.17254
vn 0.96085 0.07303 -0.26725
vn -0.97689 -0.07558 0.19993
vn -0.91329 -0.00541 0.40727
vn 0.90985 -0.00664 -0.41488
vn -0.92689 0.37156 -0.05305
vn 0.92544 -0.37514 0.05322
vn 0.94926 -0.30794 0.06382
vn -0.95919 0.27174 -0.07823
vn -0.92757 -0.36832 0.06284
vn 0.99763 0.06865 -0.00474
vn 0.84845 0.52921 -0.00837
vn -0.92945 -0.36549 -0.05044
vn -0.41449 0.84651 -0.33410
vn 0.38990 -0.78316 0.48440
vn 0.54550 -0.75019 0.37368
vn -0.50019 0.66738 -0.55174
vn -0.37280 -0.83170 -0.41146
vn 0.36985 0.83020 0.41711
vn 0.39172 0.84999 0.35224
vn -0.39080 -0.84997 -0.35330
vn -0.05205 -0.48815 0.87121
vn 0.06698 0.47104 -0.87957
vn 0.08198 0.41719 -0.90512
vn -0.08104 -0.41365 0.90682
vn 0.08675 -0.42948 -0.89890
vn -0.07127 0.43154 0.89927
vn -0.03639 0.49694 0.86702
vn 0.02608 -0.49624 -0.86779
vn 0.24622 0.57932 0.77703
vn -0.24832 -0.57751 -0.77771
vn -0.24578 -0.57973 -0.77685
vn 0.23245 0.59147 0.77209
vn -0.00355 -0.75789 0.65238
vn 0.00301 0.75759 -0.65273
vn -0.01253 0.74888 -0.66259
vn 0.01709 -0.74632 0.66537
vn -0.32429 0.81726 -0.47636
vn 0.49981 -0.81812 0.28437
vn 0.04344 -0.89631 0.44129
vn -0.09064 0.91998 -0.38135
vn 0.19292 0.62373 -0.75745
vn -0.24502 -0.60483 0.75772
vn -0.09452 -0.43304 0.89640
vn 0.21759 0.35591 -0.90884
vn -0.95336 0.27098 0.13294
vn -0.95387 0.26898 0.13337
vn -0.95947 0.24704 0.13559
vn 0.95947 -0.24707 -0.13555
vn -0.27415 0.72810 -0.62826
vn -0.27000 0.73169 -0.62589
vn 0.25372 -0.72328 0.64226
vn -0.25649 0.72470 -0.63955
vn -0.98242 -0.17624 0.06152
vn -0.98269 -0.17482 0.06125
vn -0.96150 -0.26818 0.05998
vn 0.95898 0.27707 -0.05984
vn -0.23291 -0.68983 -0.68548
vn -0.23260 -0.68915 -0.68627
vn 0.29937 0.73242 0.61150
vn -0.29757 -0.73136 -0.61365
vn 0.19893 0.61824 -0.76040
vn -0.17268 -0.46399 0.86885
vn -0.93761 -0.29226 0.18836
vn 0.91882 0.35594 -0.17051
vn -0.48978 -0.76226 -0.42317
vn 0.41517 0.78841 0.45391
vn -0.83749 -0.54393 0.05234
vn 0.89162 0.44950 -0.05451
vn 0.04545 -0.04551 0.99793
vn 0.92287 0.32425 -0.20776
vn 0.38421 0.79390 0.47129
vn 0.93297 0.35995 0
vn 0.30355 -0.52576 0.79463
vn -0.60707 0 0.79465
vn -0.49111 -0.85066 0.18760
vn -0.98232 0 -0.18722
vn -0.59657 -0.54086 -0.59294
vn -0.59517 0.54392 -0.59155
vn 0.34942 -0.59351 0.72502
vn -0.39140 -0.90800 0.14946
vn 0.96195 0.04419 0.26964
vn 0.49991 0.86576 -0.02365
vn 0.999715 -0.00002 0.02385
vn 0.53673 0.79181 -0.29149
vn 0.94397 -0.09661 0.31557
vn 0.49268 -0.86806 -0.06108
vn 0.999715 -0.00002 0.02385
vn 0.55556 -0.76931 -0.31546
vn 0.15652 0.94133 0.29901
vn 0.33243 0.93802 0.09803
vn 0.72654 0.56549 0.39035
vn 0.86352 -0.02665 0.50361
vn 0.70424 -0.59295 0.39045
vn 0.15738 -0.93895 0.30596
vn 0.32981 -0.94077 0.07854
vn 0.85710 -0.31510 -0.40754
vn 0.77508 -0.19114 -0.60226
vn 0.85499 0.33186 -0.39858
vn 0.77687 0.19596 -0.59839
vn 0.20441 0.94032 -0.27206
vn -0.08268 -0.94134 -0.32718
vn 0.20444 -0.94032 -0.27204
vn 0.43872 0.75205 -0.49188
vn 0.34797 -0.60727 -0.71424
vn 0.44732 -0.73898 -0.50379
vn 0.94397 -0.03464 0.32821
vn 0.44053 0.89595 -0.05663
vn 0.39215 0.89306 -0.22057
vn 0.47948 0.82029 -0.31182
vn 0.49231 -0.80618 -0.32820
vn 0.39215 -0.89306 -0.22057
vn 0.43549 -0.89650 -0.08146
vn 0.67591 -0.07910 -0.73273
vn 0.67936 0.08555 -0.72880
vn -0.48081 0.10627 0.87036
vn -0.29653 0.88174 0.36688
vn -0.10270 -0.08167 0.99135
vn 0.19501 0.35182 0.91553
vn 0.40691 0.53494 0.74044
vn 0.38269 -0.56638 0.72991
vn -0.29526 0.91311 0.28116
vn -0.82938 0.20934 0.51798
vn 0.45008 0.66200 0.59933
vn 0.59968 0.53840 0.59204
vn 0.74352 -0.00561 0.66869
vn 0.58899 -0.54348 0.59809
vn 0.44542 -0.65894 0.60613
vn 0.36365 0.62882 0.68727
vn -0.28583 0.95204 0.10918
vn -0.82938 0.20934 0.51798
vn 0.50960 0.46331 0.72502
vn -0.38011 0.27162 0.88416
vn 0.50398 -0.46170 0.72996
vn 0.57957 0.43154 0.69128
vn 0.61317 -0.41370 0.67296
vn -0.04238 0.57849 0.81459
vn 0.19266 0.67546 0.71179
vn -0.82938 0.20934 0.51798
vn 0.08891 0.27468 0.95742
vn 0.16496 -0.20545 0.96466
vn 0.40013 0.60717 0.68647
vn 0.52067 0.49864 0.69300
vn 0.53403 -0.49305 0.68681
vn 0.48717 -0.49893 0.71676
vn -0.98228 -0.00025 -0.18743
vn 0.22382 0.60204 -0.76645
vn -0.59657 -0.54086 -0.59294
vn -0.98229 0.00009 -0.18735
vn 0.52447 -0.25811 0.81136
vn -0.59517 0.54392 -0.59155
vn -0.39140 -0.90800 0.14946
vn 0.39081 0.90825 -0.14947
vn -0.49111 -0.85066 0.18760
vn 0.60693 0 -0.79476
vn 0.49061 0.85093 -0.18766
vn -0.60707 0 0.79465
vn 0.62939 -0.11837 -0.76802
vn -0.63011 0.11969 0.76722
vn 0.63453 0.12808 -0.76222
vn -0.63359 -0.11872 0.76450
vn -0.59517 0.54392 -0.59155
vn 0.30445 0.52588 0.79421
vn 0.30388 -0.52585 0.79444
vn -0.59657 -0.54086 -0.59294
vn -0.37277 0.63029 -0.68101
vn 0.33978 -0.48797 0.80401
vn -0.37277 0.63029 -0.68101
vn 0.21676 -0.60540 0.76584
vn -0.14466 0.98794 0.05525
vn 0.14295 -0.98818 -0.05531
vn 0.05797 0.95105 -0.30355
vn -0.05985 -0.95093 0.30357
vn 0.39733 0.68818 -0.60707
vn -0.39742 -0.68853 0.60661
vn 0.65458 0.38074 -0.65312
vn -0.65504 -0.37278 0.65723
vn -0.28595 -0.95201 0.10913
vn 0.12483 0.67669 0.72561
vn 0.28465 0.95242 -0.10896
vn -0.12629 -0.67565 -0.72633
vn 0.64226 -0.23494 -0.72960
vn 0.12483 0.67669 0.72561
vn -0.64335 0.23740 0.72783
vn -0.12629 -0.67565 -0.72633
vn -0.60707 0 0.79465
vn 0.49086 -0.85079 -0.18765
vn 0.60693 0 -0.79476
vn -0.49111 0.85066 0.18759
vn -0.39134 0.90802 0.14948
vn 0.39134 -0.90796 -0.14987
vn -0.98632 0.13701 0.09163
vn 0.98685 -0.13217 -0.09310
vn -0.98632 0.13701 0.09163
vn 0.97081 -0.18354 -0.15443
vn -0.95539 -0.24650 0.16272
vn 0.95530 0.25113 -0.15599
vn -0.95539 -0.24650 0.16272
vn 0.97285 0.17575 -0.15057
vn -0.93880 0.33785 -0.06712
vn 0.73259 -0.64009 0.23153
vn -0.39336 0.76996 -0.50242
vn -0.93880 0.33785 -0.06712
vn 0.77350 -0.55356 0.30865
vn -0.39336 0.76996 -0.50242
vn -0.90861 -0.41079 0.07528
vn 0.39045 0.84101 0.37449
vn 0.94001 0.33488 0.06503
vn -0.39042 -0.84086 -0.37487
vn -0.90861 -0.41079 0.07528
vn 0.38581 0.84236 0.37628
vn 0.90378 0.42310 -0.06447
vn -0.39042 -0.84086 -0.37487
vn -0.25149 0.86517 -0.43385
vn 0.34572 -0.83530 0.42750
vn -0.25149 0.86517 -0.43385
vn 0.30579 -0.84171 0.44500
vn -0.39042 -0.84086 -0.37487
vn 0.96708 -0.21305 -0.13913
vn 0.38581 0.84236 0.37628
vn -0.96730 0.21208 0.13913
vn -0.39042 -0.84086 -0.37487
vn 0.96706 -0.21321 -0.13903
vn 0.39045 0.84101 0.37449
vn -0.96730 0.21208 0.13913
vn 0.18239 0.52186 -0.83331
vn -0.10739 -0.55395 0.82559
vn 0.18239 0.52186 -0.83331
vn -0.13963 -0.42153 0.89600
vn 0.08965 0.45780 -0.88453
vn -0.05603 0.44305 0.89474
vn -0.06667 -0.42541 0.90254
vn 0.05374 -0.43971 -0.89653
vn 0.08965 0.45780 -0.88453
vn -0.06216 0.46964 0.88067
vn -0.01051 -0.49325 0.86983
vn 0.05374 -0.43971 -0.89653
vn 0.05374 -0.43971 -0.89653
vn 0.23037 -0.71139 0.66397
vn -0.06216 0.46964 0.88067
vn -0.22959 0.71098 -0.66468
vn 0.05374 -0.43971 -0.89653
vn 0.22968 -0.71116 0.66445
vn -0.05603 0.44305 0.89474
vn -0.22959 0.71098 -0.66468
vn -0.24449 -0.58087 -0.77641
vn 0.96708 -0.21305 -0.13913
vn 0.24405 0.58122 0.77628
vn -0.96730 0.21208 0.13913
vn -0.24449 -0.58087 -0.77641
vn 0.96706 -0.21321 -0.13903
vn 0.24357 0.58173 0.77606
vn -0.96730 0.21208 0.13913
vn -0.24449 -0.58087 -0.77641
vn 0.23037 -0.71139 0.66397
vn 0.24405 0.58122 0.77628
vn -0.22959 0.71098 -0.66468
vn -0.24449 -0.58087 -0.77641
vn 0.22968 -0.71116 0.66445
vn 0.24357 0.58173 0.77606
vn -0.22959 0.71098 -0.66468
vn -0.00459 0.75338 -0.65757
vn 0.97577 0.21014 -0.06087
vn 0.00470 -0.75332 0.65764
vn -0.97591 -0.20943 0.06120
vn -0.00459 0.75338 -0.65757
vn 0.97595 0.20924 -0.06120
vn 0.00458 -0.75338 0.65757
vn -0.97591 -0.20943 0.06120
vn -0.00459 0.75338 -0.65757
vn 0.25721 0.70589 0.65997
vn 0.00470 -0.75332 0.65764
vn -0.25614 -0.70485 -0.66150
vn -0.00459 0.75338 -0.65757
vn 0.25615 0.70531 0.66100
vn 0.00458 -0.75338 0.65757
vn -0.25614 -0.70485 -0.66150
vn -0.10110 0.93106 -0.35058
vn 0.97577 0.21014 -0.06087
vn 0.10070 -0.93080 0.35139
vn -0.97591 -0.20943 0.06120
vn -0.10110 0.93106 -0.35058
vn 0.97595 0.20924 -0.06120
vn 0.26546 -0.83560 0.48094
vn -0.97591 -0.20943 0.06120
vn 0.27233 0.57792 -0.76932
vn 0.25721 0.70589 0.65997
vn -0.20265 -0.60634 0.76895
vn -0.25614 -0.70485 -0.66150
vn 0.27233 0.57792 -0.76932
vn 0.25615 0.70531 0.66100
vn -0.21185 -0.41539 0.88463
vn -0.25614 -0.70485 -0.66150
vn -0.98795 -0.13845 -0.06919
vn 0.99227 0.05970 0.10880
vn -0.98795 -0.13845 -0.06919
vn 0.99307 0.08741 0.07852
vn -0.96093 -0.26239 -0.08815
vn 0.38281 0.76743 0.51431
vn 0.97621 0.17247 0.13142
vn -0.35175 -0.69820 -0.62353
vn -0.96093 -0.26239 -0.08815
vn 0.34409 0.67021 0.65759
vn 0.98382 0.10674 0.14391
vn -0.35175 -0.69820 -0.62353
vn -0.98028 0.13928 -0.14015
vn 0.38108 -0.72072 0.57908
vn 0.97225 -0.20006 0.12129
vn -0.36682 0.68372 -0.63085
vn -0.98028 0.13928 -0.14015
vn 0.36087 -0.66247 0.65644
vn 0.98230 -0.11273 0.14959
vn -0.36682 0.68372 -0.63085
vn -0.99343 0.06377 -0.09499
vn 0.99246 -0.05028 0.11176
vn -0.99343 0.06377 -0.09499
vn 0.99227 -0.09995 0.07352
vn -0.45558 -0.88613 -0.08498
vn 0.98014 0.11298 -0.16300
vn 0.46083 0.88321 0.08701
vn -0.95798 -0.23281 0.16755
vn -0.45558 -0.88613 -0.08498
vn 0.73889 0.67026 -0.06927
vn -0.95798 -0.23281 0.16755
vn -0.61583 -0.78749 0.02469
vn 0.57987 0.81278 -0.05602
vn -0.61583 -0.78749 0.02469
vn 0.62551 0.77986 -0.02345
vn -0.85996 -0.37246 0.34890
vn 0.87210 0.36812 -0.32239
vn -0.85996 -0.37246 0.34890
vn 0.81924 0.03569 -0.57234
vn 0.68014 0.71739 -0.15089
vn 0.40481 0.35132 -0.84422
vn -0.34588 -0.40790 0.84498
vn 0.40481 0.35132 -0.84422
vn -0.44721 -0.31339 0.83773
vn 0.36585 0.01362 -0.93057
vn -0.39340 0.00660 0.91934
vn 0.36585 0.01362 -0.93057
vn -0.30886 0.01786 0.95094
vn 0.36928 -0.25258 -0.89433
vn 0.00729 -0.56652 0.82401
vn -0.27279 0.32557 0.90531
vn 0.08381 0.49175 -0.86670
vn 0.36928 -0.25258 -0.89433
vn -0.29169 -0.08718 0.95253
vn 0.08381 0.49175 -0.86670
vn -0.17542 0.50161 -0.84712
vn 0.15333 0.49525 0.85512
vn 0.05825 -0.45850 0.88679
vn -0.10644 -0.49013 -0.86513
vn -0.17542 0.50161 -0.84712
vn 0.14166 0.49915 0.85486
vn 0.19795 -0.50668 0.83910
vn -0.10644 -0.49013 -0.86513
vn -0.08219 0.54079 -0.83713
vn -0.00483 -0.47878 0.87792
vn -0.08219 0.54079 -0.83713
vn 0.10360 -0.55176 0.82755
vn -0.32450 0.74664 -0.58071
vn 0.32397 -0.74651 0.58118
vn -0.32450 0.74664 -0.58071
vn 0.30764 -0.72884 0.61168
vn -0.10644 -0.49013 -0.86513
vn -0.00470 -0.56807 0.82297
vn 0.14166 0.49915 0.85486
vn -0.10644 -0.49013 -0.86513
vn 0.03506 -0.57225 0.81933
vn 0.15333 0.49525 0.85512
vn -0.35175 -0.69820 -0.62353
vn 0.97452 0.15244 -0.16457
vn 0.34409 0.67021 0.65759
vn -0.98063 -0.10929 0.16256
vn -0.35175 -0.69820 -0.62353
vn 0.98581 0.05374 -0.15900
vn 0.38281 0.76743 0.51431
vn -0.98063 -0.10929 0.16256
vn -0.28449 -0.54407 -0.78933
vn 0.97452 0.15244 -0.16457
vn 0.28859 0.54025 0.79047
vn -0.98063 -0.10929 0.16256
vn -0.28449 -0.54407 -0.78933
vn 0.98581 0.05374 -0.15900
vn 0.27865 0.54960 0.78759
vn -0.98063 -0.10929 0.16256
vn -0.28449 -0.54407 -0.78933
vn -0.00470 -0.56807 0.82297
vn 0.28859 0.54025 0.79047
vn -0.28449 -0.54407 -0.78933
vn 0.03506 -0.57225 0.81933
vn 0.27865 0.54960 0.78759
vn -0.51491 0.85182 -0.09626
vn 0.12678 -0.95572 0.26555
vn 0.90764 -0.41591 -0.05662
vn -0.51491 0.85182 -0.09626
vn 0.43801 -0.89630 0.06926
vn -0.78728 0.61464 0.04911
vn -0.04322 -0.77861 0.62602
vn 0.90764 -0.41591 -0.05662
vn 0.05297 0.78342 -0.61923
vn -0.78728 0.61464 0.04911
vn -0.06107 -0.78728 0.61356
vn 0.65390 -0.75548 -0.04079
vn 0.05297 0.78342 -0.61923
vn 0.05297 0.78342 -0.61923
vn -0.16996 0.31364 0.93421
vn -0.04322 -0.77861 0.62602
vn 0.29625 -0.15610 -0.94227
vn 0.05297 0.78342 -0.61923
vn -0.40197 0.00526 0.91564
vn -0.06107 -0.78728 0.61356
vn 0.29625 -0.15610 -0.94227
vn 0.40228 0.13843 -0.90499
vn -0.37092 -0.51688 0.77152
vn -0.16996 0.31364 0.93421
vn 0.40228 0.13843 -0.90499
vn -0.46192 -0.19646 0.86489
vn -0.95798 -0.23281 0.16755
vn 0.21254 0.60846 0.76459
vn 0.98014 0.11298 -0.16300
vn -0.19826 -0.62030 -0.75889
vn -0.95798 -0.23281 0.16755
vn 0.19077 0.62640 0.75580
vn 0.91531 0.36526 -0.16967
vn -0.19826 -0.62030 -0.75889
vn 0.08381 0.49175 -0.86670
vn 0.21254 0.60846 0.76459
vn 0.00729 -0.56652 0.82401
vn -0.19826 -0.62030 -0.75889
vn 0.08381 0.49175 -0.86670
vn 0.19077 0.62640 0.75580
vn -0.17263 -0.41040 0.89542
vn -0.19826 -0.62030 -0.75889
vn 0.01188 0.57438 -0.81850
vn 0.37702 0.77386 0.50892
vn 0.00809 -0.59073 0.80683
vn -0.36461 -0.76783 -0.52677
vn 0.01188 0.57438 -0.81850
vn 0.35368 0.76203 0.54241
vn -0.06788 -0.49692 0.86514
vn -0.36461 -0.76783 -0.52677
vn -0.06373 0.71804 -0.69308
vn 0.37702 0.77386 0.50892
vn 0.07392 -0.71149 0.69880
vn -0.36461 -0.76783 -0.52677
vn -0.06373 0.71804 -0.69308
vn 0.35368 0.76203 0.54241
vn 0.05395 -0.72417 0.68750
vn -0.36461 -0.76783 -0.52677
vn -0.06373 0.71804 -0.69308
vn 0.92187 0.38302 -0.05869
vn 0.07392 -0.71149 0.69880
vn -0.06373 0.71804 -0.69308
vn -0.93052 -0.36130 0.06004
vn 0.05395 -0.72417 0.68750
vn 0.92517 0.37483 -0.05970
vn -0.27950 0.80340 -0.52577
vn 0.92187 0.38302 -0.05869
vn 0.25157 -0.78847 0.56126
vn -0.27950 0.80340 -0.52577
vn -0.93052 -0.36130 0.06004
vn 0.26560 -0.76936 0.58099
vn 0.92517 0.37483 -0.05970
vn -0.85509 -0.04233 0.51675
vn 0.79805 -0.60049 -0.05034
vn 0.87945 0.05404 -0.47292
vn -0.78705 0.61391 0.06050
vn -0.85509 -0.04233 0.51675
vn 0.74243 -0.66462 -0.08412
vn 0.81924 0.03569 -0.57234
vn -0.78705 0.61391 0.06050
vn -0.67252 0.74004 0.00745
vn 0.64639 -0.76257 0.02582
vn -0.67252 0.74004 0.00745
vn 0.69079 -0.71490 0.10826
vn -0.35893 0.92285 -0.13971
vn 0.34697 -0.89801 0.27052
vn -0.35893 0.92285 -0.13971
vn 0.36530 -0.91754 0.15711
vn 0.98410 0.01549 0.17694
vn -0.98092 0.00872 -0.19421
vn 0.98137 0.00224 0.19210
vn 0.98250 0.00460 0.18621
vn 0.29662 0.50052 0.81332
vn 0.98364 0.03098 0.17747
vn -0.29636 -0.50229 -0.81233
vn -0.98093 0.01580 -0.19372
vn 0.31117 0.54433 0.77902
vn 0.98193 0.00429 0.18920
vn 0.30257 -0.52204 0.79745
vn 0.98291 -0.01330 0.18363
vn -0.28977 0.49433 -0.81956
vn -0.98110 -0.01645 -0.19280
vn 0.31299 -0.55031 0.77408
vn 0.98364 -0.00665 0.18000
vn -0.98102 -0.00741 -0.19375
vn 0.98108 0.00209 0.19359
vn 0.37891 0.91293 -0.15158
vn 0.44206 0.88556 -0.14271
vn -0.34302 -0.92505 0.16318
vn 0.50267 0.84702 -0.17286
vn -0.47759 -0.85335 0.20907
vn 0.48726 0.85197 -0.19166
vn 0.48233 0.85541 -0.18876
vn 0.59429 -0.00129 -0.80425
vn 0.51450 0.83749 -0.18414
vn -0.56491 0.00667 0.82512
vn -0.46165 -0.86611 0.19165
vn 0.64077 0.00566 -0.76771
vn -0.63998 -0.10964 0.76053
vn -0.60988 -0.14612 0.77890
vn 0.66157 0.08365 -0.74520
vn -0.58395 -0.00540 0.81177
vn 0.64051 -0.00246 -0.76795
vn -0.61819 -0.00426 0.78602
vn -0.64368 0.12002 0.75583
vn -0.59599 0.08621 0.79835
vn 0.67131 -0.14523 -0.72681
vn 0.30658 -0.52567 0.79352
vn 0.30045 0.52521 0.79617
vn 0.29248 -0.52293 0.80062
vn -0.32564 -0.52833 -0.78411
vn -0.31853 0.52804 -0.78722
vn 0.28002 0.52244 0.80538
vn 0.22062 -0.60689 0.76356
vn 0.20297 -0.59632 0.77666
vn -0.23572 0.61509 -0.75240
vn 0.21607 -0.60330 0.76769
vn 0.23330 -0.62582 0.74426
vn -0.19609 0.57783 -0.79225
vn 0.28002 0.52244 0.80538
vn -0.17268 -0.46399 0.86885
vn -0.32564 -0.52833 -0.78411
vn 0.14497 0.48900 -0.86015
vn 0.30045 0.52521 0.79617
vn 0.17259 0.55568 -0.81329
vn 0.31117 0.54433 0.77902
vn 0.91882 0.35594 -0.17051
vn -0.29636 -0.50229 -0.81233
vn -0.93397 -0.31399 0.17064
vn 0.29662 0.50052 0.81332
vn -0.93588 -0.30315 0.17952
vn 0.30188 0.52728 0.79426
vn 0.91882 0.35594 -0.17051
vn -0.30476 -0.52452 -0.79498
vn -0.93397 -0.31399 0.17064
vn 0.29857 0.53058 0.79331
vn -0.93588 -0.30315 0.17952
vn 0.30188 0.52728 0.79426
vn -0.17268 -0.46399 0.86885
vn -0.30476 -0.52452 -0.79498
vn 0.14497 0.48900 -0.86015
vn 0.29857 0.53058 0.79331
vn 0.17259 0.55568 -0.81329
vn 0.14460 -0.98811 -0.05217
vn 0.16556 -0.98558 -0.03496
vn -0.11614 0.98952 0.08577
vn -0.05770 -0.95126 0.30295
vn -0.02445 -0.95196 0.30524
vn 0.10213 0.94732 -0.30356
vn -0.39874 -0.69257 0.60112
vn -0.38917 -0.66830 0.63397
vn 0.40352 0.70761 -0.58004
vn -0.65965 -0.37290 0.65254
vn -0.63712 -0.36213 0.68040
vn 0.67386 0.38167 -0.63265
vn 0.25730 0.96058 -0.10529
vn 0.12083 0.67957 0.72359
vn 0.39189 0.91170 -0.12340
vn -0.11313 -0.68501 -0.71970
vn -0.18126 -0.97888 0.09451
vn 0.13501 0.66935 0.73058
vn -0.65256 0.25833 0.71234
vn 0.12083 0.67957 0.72359
vn -0.60109 0.15090 0.78480
vn -0.11313 -0.68501 -0.71970
vn 0.67945 -0.32634 -0.65716
vn 0.13501 0.66935 0.73058
vn 0.11061 -0.66138 0.74185
vn 0.41517 0.78841 0.45391
vn -0.14922 0.69251 -0.70581
vn -0.41744 -0.73584 -0.53319
vn 0.13134 -0.67910 0.72220
vn -0.45464 -0.75074 -0.47926
vn 0.11897 -0.68088 0.72266
vn 0.41517 0.78841 0.45391
vn -0.13491 0.66941 -0.73054
vn -0.41744 -0.73584 -0.53319
vn 0.12896 -0.67372 0.72764
vn -0.45464 -0.75074 -0.47926
vn 0.11897 -0.68088 0.72266
vn 0.89162 0.44950 -0.05451
vn -0.13491 0.66941 -0.73054
vn -0.89788 -0.43654 0.05694
vn 0.12896 -0.67372 0.72764
vn -0.86934 -0.49117 0.05474
vn 0.15058 -0.69324 0.70480
vn 0.89162 0.44950 -0.05451
vn -0.09917 0.65180 -0.75188
vn -0.89788 -0.43654 0.05694
vn 0.12633 -0.67552 0.72644
vn -0.86934 -0.49117 0.05474
vn 0.59429 -0.00129 -0.80425
vn 0.48467 -0.85398 -0.18925
vn 0.64077 0.00566 -0.76771
vn -0.44300 0.87313 0.20347
vn -0.56491 0.00667 0.82512
vn 0.52924 -0.83042 -0.17410
vn 0.51352 -0.84112 -0.16975
vn -0.46021 0.85918 0.22366
vn 0.48526 -0.85067 -0.20222
vn 0.38774 -0.90771 -0.16034
vn 0.38812 -0.91419 -0.11667
vn -0.39420 0.89490 0.20920
vn 0.98423 -0.13654 -0.11244
vn 0.98114 -0.15173 -0.11976
vn -0.99297 0.10060 0.06242
vn 0.97243 0.16932 -0.16032
vn 0.94639 0.26683 -0.18208
vn -0.96522 -0.22498 0.13318
vn 0.95978 0.22263 -0.17105
vn 0.97877 0.16782 -0.11771
vn -0.96314 -0.19385 0.18650
vn 0.97023 -0.18444 -0.15695
vn 0.97772 -0.16887 -0.12468
vn -0.96375 0.19176 0.18551
vn 0.93291 -0.35498 0.06050
vn 0.39986 -0.80121 0.44517
vn 0.93990 -0.33465 0.06775
vn -0.72397 0.65742 -0.20895
vn 0.40903 -0.81769 0.40507
vn 0.78197 -0.56790 0.25693
vn 0.76941 -0.57342 0.28143
vn -0.50019 0.66738 -0.55174
vn -0.95919 0.27174 -0.07823
vn 0.96346 0.26419 -0.04405
vn 0.38290 0.84190 0.38024
vn 0.88984 0.44892 -0.08155
vn -0.37280 -0.83170 -0.41146
vn -0.92757 -0.36832 0.06284
vn 0.39532 0.85220 0.34274
vn 0.69575 0.68348 0.22085
vn 0.94496 0.31705 0.08086
vn -0.39080 -0.84997 -0.35330
vn -0.92945 -0.36549 -0.05044
vn 0.38963 0.83311 0.39257
vn 0.40229 -0.81285 0.42123
vn 0.35561 -0.81698 0.45397
vn -0.37075 0.83494 -0.40672
vn 0.31079 -0.85249 0.42031
vn 0.31628 -0.85152 0.41819
vn -0.30553 0.82087 -0.48253
vn 0.38290 0.84190 0.38024
vn 0.96681 -0.21441 -0.13893
vn 0.39532 0.85220 0.34274
vn -0.95947 0.24704 0.13559
vn -0.37280 -0.83170 -0.41146
vn 0.97306 -0.18151 -0.14215
vn 0.39077 0.84175 0.37249
vn -0.95336 0.27098 0.13294
vn 0.97504 -0.16950 -0.14342
vn 0.38963 0.83311 0.39257
vn -0.95387 0.26898 0.13337
vn -0.39080 -0.84997 -0.35330
vn 0.97504 -0.16950 -0.14342
vn -0.05298 -0.48291 0.87407
vn -0.06323 0.47768 0.87626
vn -0.05390 -0.47765 0.87689
vn 0.02608 -0.49624 -0.86779
vn 0.06698 0.47104 -0.87957
vn -0.08999 0.45785 0.88446
vn -0.14637 -0.54696 0.82426
vn -0.14301 -0.54302 0.82746
vn 0.13084 0.55112 -0.82410
vn -0.10225 -0.41897 0.90222
vn -0.11673 -0.41446 0.90255
vn 0.15020 0.38762 -0.90950
vn -0.06604 -0.42147 0.90443
vn -0.05497 0.43916 0.89672
vn -0.05102 -0.42917 0.90178
vn 0.08675 -0.42948 -0.89890
vn 0.08198 0.41719 -0.90512
vn -0.03864 0.44665 0.89388
vn -0.05497 0.43916 0.89672
vn -0.27000 0.73169 -0.62589
vn 0.19970 -0.69755 0.68815
vn -0.03864 0.44665 0.89388
vn -0.27415 0.72810 -0.62826
vn 0.08675 -0.42948 -0.89890
vn 0.19970 -0.69755 0.68815
vn -0.06323 0.47768 0.87626
vn 0.23092 -0.71176 0.66338
vn -0.08999 0.45785 0.88446
vn -0.25649 0.72470 -0.63955
vn 0.02608 -0.49624 -0.86779
vn 0.20787 -0.69946 0.68378
vn 0.24328 0.58194 0.77599
vn 0.96681 -0.21441 -0.13893
vn 0.24034 0.58455 0.77494
vn -0.95947 0.24704 0.13559
vn -0.24832 -0.57751 -0.77771
vn 0.97306 -0.18151 -0.14215
vn 0.24328 0.58194 0.77599
vn 0.23092 -0.71176 0.66338
vn 0.24034 0.58455 0.77494
vn -0.25649 0.72470 -0.63955
vn -0.24832 -0.57751 -0.77771
vn 0.20787 -0.69946 0.68378
vn 0.24185 0.58323 0.77547
vn -0.27000 0.73169 -0.62589
vn 0.19970 -0.69755 0.68815
vn 0.25121 0.57488 0.77872
vn -0.27415 0.72810 -0.62826
vn -0.24578 -0.57973 -0.77685
vn 0.19970 -0.69755 0.68815
vn 0.24185 0.58323 0.77547
vn -0.95336 0.27098 0.13294
vn 0.97504 -0.16950 -0.14342
vn 0.25121 0.57488 0.77872
vn -0.95387 0.26898 0.13337
vn -0.24578 -0.57973 -0.77685
vn 0.97504 -0.16950 -0.14342
vn 0.00401 -0.75370 0.65720
vn -0.98242 -0.17624 0.06152
vn 0.97066 0.23285 -0.06009
vn 0.01157 -0.74944 0.66197
vn -0.98269 -0.17482 0.06125
vn 0.00301 0.75759 -0.65273
vn 0.97066 0.23285 -0.06009
vn 0.00401 -0.75370 0.65720
vn -0.23260 -0.68915 -0.68627
vn 0.27266 0.71579 0.64288
vn 0.01157 -0.74944 0.66197
vn -0.23291 -0.68983 -0.68548
vn 0.00301 0.75759 -0.65273
vn 0.27266 0.71579 0.64288
vn 0.00732 -0.75186 0.65928
vn 0.25904 0.70711 0.65795
vn -0.00245 -0.75728 0.65309
vn -0.29757 -0.73136 -0.61365
vn -0.01253 0.74888 -0.66259
vn 0.21757 0.67866 0.70149
vn 0.00732 -0.75186 0.65928
vn 0.97490 0.21416 -0.06084
vn -0.00245 -0.75728 0.65309
vn -0.96150 -0.26818 0.05998
vn -0.01253 0.74888 -0.66259
vn 0.98671 0.15035 -0.06158
vn 0.40446 -0.82401 0.39675
vn -0.98242 -0.17624 0.06152
vn 0.97066 0.23285 -0.06009
vn 0.30032 -0.81198 0.50050
vn -0.98269 -0.17482 0.06125
vn -0.32429 0.81726 -0.47636
vn 0.97066 0.23285 -0.06009
vn 0.07248 -0.92017 0.38475
vn 0.97490 0.21416 -0.06084
vn 0.10117 -0.93979 0.32643
vn -0.96150 -0.26818 0.05998
vn -0.09064 0.91998 -0.38135
vn 0.98671 0.15035 -0.06158
vn -0.23753 -0.60265 0.76184
vn 0.25904 0.70711 0.65795
vn -0.23001 -0.60042 0.76589
vn -0.29757 -0.73136 -0.61365
vn 0.19292 0.62373 -0.75745
vn 0.21757 0.67866 0.70149
vn -0.13837 -0.41592 0.89881
vn -0.23260 -0.68915 -0.68627
vn 0.27266 0.71579 0.64288
vn -0.18191 -0.39788 0.89922
vn -0.23291 -0.68983 -0.68548
vn 0.21759 0.35591 -0.90884
vn 0.27266 0.71579 0.64288
vn -0.98194 0.00192 -0.18920
vn 0.97824 -0.01101 0.20719
vn -0.98210 0.00083 -0.18836
vn -0.98211 0.00167 -0.18832
vn 0.22382 0.60204 -0.76645
vn -0.30288 -0.52306 -0.79666
vn -0.98197 0.00384 -0.18900
vn 0.28109 0.45505 0.84494
vn 0.98060 -0.02179 0.19482
vn -0.30288 -0.52306 -0.79666
vn -0.98202 -0.00089 -0.18879
vn 0.97825 0.01083 0.20714
vn -0.98215 -0.00040 -0.18811
vn -0.98220 -0.00080 -0.18783
vn 0.52447 -0.25811 0.81136
vn -0.30215 0.52259 -0.79725
vn -0.98213 -0.00176 -0.18818
vn 0.29172 -0.49302 0.81965
vn 0.98062 0.02187 0.19470
vn -0.30215 0.52259 -0.79725
vn -0.48961 -0.85108 0.18958
vn 0.47154 0.85639 -0.21035
vn -0.48961 -0.85108 0.18958
vn 0.49089 0.85076 -0.18771
vn -0.38460 -0.91075 0.15041
vn 0.39081 0.90825 -0.14947
vn -0.38460 -0.91075 0.15041
vn 0.31248 0.93637 -0.15989
vn -0.48774 -0.85249 0.18806
vn 0.60693 0 -0.79476
vn 0.49061 0.85093 -0.18766
vn -0.60231 0.00063 0.79826
vn -0.48774 -0.85249 0.18806
vn 0.54570 -0.00825 -0.83794
vn 0.44950 0.87215 -0.19313
vn -0.60231 0.00063 0.79826
vn 0.61011 -0.00064 -0.79232
vn -0.65134 -0.00311 0.75878
vn 0.61011 -0.00064 -0.79232
vn -0.60741 0.00046 0.79439
vn 0.63596 0.11518 -0.76308
vn -0.63359 -0.11872 0.76450
vn 0.63596 0.11518 -0.76308
vn -0.66845 -0.07285 0.74018
vn 0.63409 -0.12281 -0.76344
vn -0.63011 0.11969 0.76722
vn 0.63409 -0.12281 -0.76344
vn -0.68898 0.15397 0.70823
vn -0.21836 0.60609 -0.76483
vn 0.21676 -0.60540 0.76584
vn -0.21836 0.60609 -0.76483
vn 0.23816 -0.61710 0.74998
vn -0.30510 0.52590 -0.79395
vn 0.30445 0.52588 0.79421
vn 0.30388 -0.52585 0.79444
vn -0.30714 -0.52605 -0.79306
vn -0.30510 0.52590 -0.79395
vn 0.32072 0.52772 0.78654
vn 0.32059 -0.52828 0.78622
vn -0.30714 -0.52605 -0.79306
vn -0.21421 0.60255 -0.76880
vn 0.33978 -0.48797 0.80401
vn -0.21421 0.60255 -0.76880
vn 0.19850 -0.57990 0.79013
vn -0.30714 -0.52605 -0.79306
vn 0.19893 0.61824 -0.76040
vn 0.32072 0.52772 0.78654
vn -0.20476 -0.61384 0.76241
vn -0.30714 -0.52605 -0.79306
vn 0.05665 -0.05209 0.99703
vn -0.30288 -0.52306 -0.79666
vn -0.93610 -0.29187 0.19631
vn 0.28109 0.45505 0.84494
vn -0.30288 -0.52306 -0.79666
vn 0.92287 0.32425 -0.20776
vn 0.22382 0.60204 -0.76645
vn -0.93452 -0.29146 0.20426
vn -0.30373 -0.52546 -0.79475
vn -0.93610 -0.29187 0.19631
vn 0.29527 0.53386 0.79235
vn -0.30373 -0.52546 -0.79475
vn 0.92287 0.32425 -0.20776
vn 0.30359 0.52565 0.79469
vn -0.93452 -0.29146 0.20426
vn -0.30373 -0.52546 -0.79475
vn 0.19893 0.61824 -0.76040
vn 0.29527 0.53386 0.79235
vn -0.20476 -0.61384 0.76241
vn -0.30373 -0.52546 -0.79475
vn 0.05630 -0.05217 0.99705
vn 0.06247 0.95085 -0.30330
vn -0.05985 -0.95093 0.30357
vn 0.06247 0.95085 -0.30330
vn -0.09068 -0.94951 0.30034
vn -0.14154 0.98823 0.05796
vn 0.14295 -0.98818 -0.05531
vn -0.14154 0.98823 0.05796
vn 0.12329 -0.98993 -0.06953
vn 0.39832 0.69071 -0.60355
vn -0.39742 -0.68853 0.60661
vn 0.39832 0.69071 -0.60355
vn -0.40755 -0.71550 0.56742
vn 0.65705 0.37344 -0.65484
vn -0.65504 -0.37278 0.65723
vn 0.65705 0.37344 -0.65484
vn -0.68156 -0.38330 0.62334
vn -0.27126 -0.95652 0.10720
vn 0.12483 0.67669 0.72561
vn 0.28465 0.95242 -0.10896
vn -0.12395 -0.67732 -0.72517
vn -0.27126 -0.95652 0.10720
vn 0.10662 0.68955 0.71634
vn 0.11735 0.98945 -0.08500
vn -0.12395 -0.67732 -0.72517
vn 0.64746 -0.24667 -0.72108
vn 0.12483 0.67669 0.72561
vn -0.64335 0.23740 0.72783
vn -0.12395 -0.67732 -0.72517
vn 0.64746 -0.24667 -0.72108
vn 0.10662 0.68955 0.71634
vn -0.69133 0.36075 0.62604
vn -0.12395 -0.67732 -0.72517
vn -0.12840 0.67731 -0.72440
vn -0.48978 -0.76226 -0.42317
vn 0.15191 -0.69605 0.70174
vn 0.43584 0.80563 0.40126
vn -0.12840 0.67731 -0.72440
vn 0.41042 0.80053 0.43669
vn 0.12645 -0.67603 0.72594
vn -0.12723 0.67497 -0.72679
vn -0.83749 -0.54393 0.05234
vn 0.13893 -0.66645 0.73249
vn 0.87505 0.48204 -0.04374
vn -0.12723 0.67497 -0.72679
vn 0.90630 0.42206 -0.02192
vn 0.12655 -0.67548 0.72644
vn -0.12723 0.67497 -0.72679
vn -0.48978 -0.76226 -0.42317
vn 0.13893 -0.66645 0.73249
vn 0.43584 0.80563 0.40126
vn -0.12723 0.67497 -0.72679
vn 0.41042 0.80053 0.43669
vn 0.12655 -0.67548 0.72644
vn -0.12308 0.67351 -0.72886
vn -0.83749 -0.54393 0.05234
vn 0.10190 -0.65687 0.74709
vn 0.87505 0.48204 -0.04374
vn -0.12308 0.67351 -0.72886
vn 0.90630 0.42206 -0.02192
vn 0.12553 -0.67537 0.72672
vn -0.60231 0.00063 0.79826
vn 0.49086 -0.85079 -0.18765
vn 0.60693 0 -0.79476
vn -0.48583 0.85331 0.18927
vn -0.60231 0.00063 0.79826
vn 0.43875 -0.87518 -0.20386
vn 0.54570 -0.00825 -0.83794
vn -0.48583 0.85331 0.18927
vn -0.48806 0.85189 0.18994
vn 0.45603 -0.85856 -0.23433
vn -0.48806 0.85189 0.18994
vn 0.49093 -0.85070 -0.18786
vn -0.39153 0.90721 0.15386
vn 0.39134 -0.90796 -0.14987
vn -0.39153 0.90721 0.15386
vn 0.38661 -0.89948 -0.20362
vn -0.95654 -0.24054 0.16486
vn 0.95530 0.25113 -0.15599
vn -0.95654 -0.24054 0.16486
vn 0.98796 0.07147 -0.13721
vn -0.98758 0.12656 0.09313
vn 0.98685 -0.13217 -0.09310
vn -0.98758 0.12656 0.09313
vn 0.98702 -0.12138 -0.10512
vn -0.97192 -0.17765 0.15433
vn 0.97285 0.17575 -0.15057
vn -0.97192 -0.17765 0.15433
vn 0.93402 0.27759 -0.22483
vn -0.96822 0.19224 0.15998
vn 0.97081 -0.18354 -0.15443
vn -0.96822 0.19224 0.15998
vn 0.96131 -0.19997 -0.18944
vn -0.93027 0.36218 -0.05844
vn 0.73259 -0.64009 0.23153
vn -0.40322 0.83577 -0.37270
vn -0.93027 0.36218 -0.05844
vn 0.38990 -0.78316 0.48440
vn 0.92544 -0.37514 0.05322
vn -0.40322 0.83577 -0.37270
vn -0.78717 0.53307 -0.31015
vn 0.77350 -0.55356 0.30865
vn -0.78717 0.53307 -0.31015
vn 0.79386 -0.56196 0.23235
vn -0.91404 -0.39736 0.08149
vn 0.38581 0.84236 0.37628
vn 0.90378 0.42310 -0.06447
vn -0.38329 -0.84200 -0.37964
vn -0.91404 -0.39736 0.08149
vn 0.36985 0.83020 0.41711
vn 0.99763 0.06865 -0.00474
vn -0.38329 -0.84200 -0.37964
vn -0.93480 -0.34826 -0.06970
vn 0.39045 0.84101 0.37449
vn 0.94001 0.33488 0.06503
vn -0.39076 -0.84169 -0.37265
vn -0.93480 -0.34826 -0.06970
vn 0.65743 0.73113 0.18229
vn -0.39076 -0.84169 -0.37265
vn -0.38749 0.81214 -0.43622
vn 0.34572 -0.83530 0.42750
vn -0.38749 0.81214 -0.43622
vn 0.44785 -0.80603 0.38697
vn -0.31790 0.83359 -0.45173
vn 0.30579 -0.84171 0.44500
vn -0.31790 0.83359 -0.45173
vn 0.30527 -0.85344 0.42243
vn -0.38329 -0.84200 -0.37964
vn 0.96708 -0.21305 -0.13913
vn 0.38581 0.84236 0.37628
vn -0.96657 0.21560 0.13879
vn -0.38329 -0.84200 -0.37964
vn 0.95947 -0.24707 -0.13555
vn 0.36985 0.83020 0.41711
vn -0.96657 0.21560 0.13879
vn -0.39076 -0.84169 -0.37265
vn 0.96706 -0.21321 -0.13903
vn 0.39045 0.84101 0.37449
vn -0.96616 0.21757 0.13859
vn -0.39076 -0.84169 -0.37265
vn -0.96012 0.24437 0.13581
vn 0.39172 0.84999 0.35224
vn 0.00636 0.49545 -0.86861
vn -0.06216 0.46964 0.88067
vn -0.01051 -0.49325 0.86983
vn 0.05936 -0.47123 -0.88001
vn 0.00636 0.49545 -0.86861
vn -0.03639 0.49694 0.86702
vn -0.05205 -0.48815 0.87121
vn 0.05936 -0.47123 -0.88001
vn 0.11100 0.56460 -0.81786
vn -0.10739 -0.55395 0.82559
vn 0.11100 0.56460 -0.81786
vn -0.14973 -0.55090 0.82103
vn 0.06450 0.41987 -0.90529
vn -0.05603 0.44305 0.89474
vn -0.06667 -0.42541 0.90254
vn 0.05540 -0.43678 -0.89786
vn 0.06450 0.41987 -0.90529
vn -0.07127 0.43154 0.89927
vn -0.08104 -0.41365 0.90682
vn 0.05540 -0.43678 -0.89786
vn 0.13941 0.41791 -0.89773
vn -0.13963 -0.42153 0.89600
vn 0.13941 0.41791 -0.89773
vn -0.08778 -0.42338 0.90169
vn 0.05540 -0.43678 -0.89786
vn 0.23144 -0.71173 0.66324
vn -0.05603 0.44305 0.89474
vn 0.05540 -0.43678 -0.89786
vn -0.27000 0.73169 -0.62589
vn -0.07127 0.43154 0.89927
vn 0.23319 -0.71229 0.66202
vn 0.05936 -0.47123 -0.88001
vn 0.23037 -0.71139 0.66397
vn -0.06216 0.46964 0.88067
vn -0.23244 0.71251 -0.66204
vn 0.05936 -0.47123 -0.88001
vn 0.25372 -0.72328 0.64226
vn -0.03639 0.49694 0.86702
vn -0.23244 0.71251 -0.66204
vn -0.24531 -0.58012 -0.77671
vn 0.23037 -0.71139 0.66397
vn 0.24405 0.58122 0.77628
vn -0.23244 0.71251 -0.66204
vn -0.24531 -0.58012 -0.77671
vn 0.25372 -0.72328 0.64226
vn 0.24622 0.57932 0.77703
vn -0.23244 0.71251 -0.66204
vn -0.24531 -0.58012 -0.77671
vn 0.96708 -0.21305 -0.13913
vn 0.24405 0.58122 0.77628
vn -0.96657 0.21560 0.13879
vn -0.24531 -0.58012 -0.77671
vn 0.95947 -0.24707 -0.13555
vn 0.24622 0.57932 0.77703
vn -0.96657 0.21560 0.13879
vn -0.24328 -0.58197 -0.77597
vn 0.23144 -0.71173 0.66324
vn 0.24357 0.58173 0.77606
vn -0.24328 -0.58197 -0.77597
vn -0.27000 0.73169 -0.62589
vn 0.23245 0.59147 0.77209
vn 0.23319 -0.71229 0.66202
vn -0.24328 -0.58197 -0.77597
vn 0.96706 -0.21321 -0.13903
vn 0.24357 0.58173 0.77606
vn -0.96616 0.21757 0.13859
vn -0.24328 -0.58197 -0.77597
vn -0.96012 0.24437 0.13581
vn 0.23245 0.59147 0.77209
vn -0.00379 0.75382 -0.65707
vn 0.25527 0.70463 0.66207
vn 0.00458 -0.75338 0.65757
vn -0.00379 0.75382 -0.65707
vn -0.23260 -0.68915 -0.68627
vn -0.00355 -0.75789 0.65238
vn 0.25438 0.70394 0.66314
vn -0.00379 0.75382 -0.65707
vn 0.97625 0.20781 -0.06118
vn 0.00458 -0.75338 0.65757
vn -0.00379 0.75382 -0.65707
vn -0.98242 -0.17624 0.06152
vn -0.00355 -0.75789 0.65238
vn 0.97656 0.20639 -0.06115
vn -0.00537 0.75296 -0.65805
vn 0.25721 0.70589 0.65997
vn 0.00470 -0.75332 0.65764
vn -0.26085 -0.70833 -0.65592
vn -0.00537 0.75296 -0.65805
vn 0.29937 0.73242 0.61150
vn 0.01709 -0.74632 0.66537
vn -0.26085 -0.70833 -0.65592
vn -0.00537 0.75296 -0.65805
vn 0.97577 0.21014 -0.06087
vn 0.00470 -0.75332 0.65764
vn -0.97448 -0.21608 0.06081
vn -0.00537 0.75296 -0.65805
vn 0.95898 0.27707 -0.05984
vn 0.01709 -0.74632 0.66537
vn -0.97448 -0.21608 0.06081
vn -0.36988 0.78457 -0.49763
vn 0.97625 0.20781 -0.06118
vn 0.26546 -0.83560 0.48094
vn -0.36988 0.78457 -0.49763
vn -0.98242 -0.17624 0.06152
vn 0.49981 -0.81812 0.28437
vn 0.97656 0.20639 -0.06115
vn -0.08691 0.93137 -0.35355
vn 0.97577 0.21014 -0.06087
vn 0.10070 -0.93080 0.35139
vn -0.97448 -0.21608 0.06081
vn -0.08691 0.93137 -0.35355
vn 0.95898 0.27707 -0.05984
vn 0.04344 -0.89631 0.44129
vn -0.97448 -0.21608 0.06081
vn 0.21361 0.62342 -0.75214
vn 0.25721 0.70589 0.65997
vn -0.20265 -0.60634 0.76895
vn -0.26085 -0.70833 -0.65592
vn 0.21361 0.62342 -0.75214
vn 0.29937 0.73242 0.61150
vn -0.24502 -0.60483 0.75772
vn -0.26085 -0.70833 -0.65592
vn 0.21353 0.41358 -0.88507
vn 0.25527 0.70463 0.66207
vn -0.21185 -0.41539 0.88463
vn 0.21353 0.41358 -0.88507
vn -0.23260 -0.68915 -0.68627
vn -0.09452 -0.43304 0.89640
vn 0.25438 0.70394 0.66314
vn -0.05772 -0.97868 0.19712
vn 0.38281 0.76743 0.51431
vn 0.97621 0.17247 0.13142
vn -0.05772 -0.97868 0.19712
vn -0.29636 -0.50229 -0.81233
vn -0.98093 0.01580 -0.19372
vn 0.29044 -0.89258 0.34490
vn 0.94988 0.06090 0.30664
vn 0.29044 -0.89258 0.34490
vn -0.98092 0.00872 -0.19421
vn 0.70500 -0.00203 0.70920
vn -0.93914 0.23642 -0.24924
vn 0.34409 0.67021 0.65759
vn 0.98382 0.10674 0.14391
vn -0.13947 -0.11014 -0.98408
vn -0.98509 -0.06804 -0.15799
vn -0.39080 -0.84997 -0.35330
vn -0.13947 -0.11014 -0.98408
vn -0.94644 0.11268 -0.30258
vn 0.99227 0.05970 0.10880
vn -0.99709 -0.03958 -0.06511
vn -0.93777 -0.23503 -0.25563
vn 0.36087 -0.66247 0.65644
vn 0.98230 -0.11273 0.14959
vn 0.17160 -0.52550 -0.83331
vn -0.88891 0.38340 -0.25069
vn 0.17160 -0.52550 -0.83331
vn -0.94403 -0.12499 -0.30525
vn 0.99246 -0.05028 0.11176
vn -0.99721 0.03168 -0.06760
vn 0.29181 0.89241 0.34418
vn 0.38108 -0.72072 0.57908
vn 0.97225 -0.20006 0.12129
vn -0.42299 0.86403 -0.27300
vn 0.29181 0.89241 0.34418
vn -0.37846 0.72126 -0.58013
vn -0.98110 -0.01645 -0.19280
vn 0.29181 0.89241 0.34418
vn 0.95014 -0.07122 0.30358
vn 0.29181 0.89241 0.34418
vn -0.98102 -0.00741 -0.19375
vn 0.70500 -0.00203 0.70920
vn -0.43776 -0.62620 0.64517
vn 0.73889 0.67026 -0.06927
vn 0.59749 -0.80083 -0.04105
vn -0.43776 -0.62620 0.64517
vn -0.95947 0.24704 0.13559
vn -0.37280 -0.83170 -0.41146
vn 0.59749 -0.80083 -0.04105
vn -0.23810 -0.85230 0.46571
vn 0.57987 0.81278 -0.05602
vn -0.23810 -0.85230 0.46571
vn -0.37280 -0.83170 -0.41146
vn -0.92757 -0.36832 0.06284
vn 0.01760 -0.28196 -0.95926
vn 0.98014 0.11298 -0.16300
vn 0.46083 0.88321 0.08701
vn -0.83115 0.54785 0.09513
vn 0.01760 -0.28196 -0.95926
vn -0.34302 -0.92505 0.16318
vn -0.83115 0.54785 0.09513
vn 0.01760 -0.28196 -0.95926
vn 0.62551 0.77986 -0.02345
vn -0.82944 0.54111 -0.13866
vn 0.01760 -0.28196 -0.95926
vn -0.47759 -0.85335 0.20907
vn -0.82944 0.54111 -0.13866
vn -0.94347 0.22345 -0.24482
vn 0.87210 0.36812 -0.32239
vn -0.94347 0.22345 -0.24482
vn -0.56491 0.00667 0.82512
vn -0.46165 -0.86611 0.19165
vn -0.00911 -0.97341 0.22888
vn 0.81924 0.03569 -0.57234
vn 0.68014 0.71739 -0.15089
vn -0.15099 0.05527 0.98699
vn -0.00911 -0.97341 0.22888
vn -0.96522 -0.22498 0.13318
vn -0.15099 0.05527 0.98699
vn 0.86338 -0.43190 -0.26083
vn -0.44721 -0.31339 0.83773
vn 0.86338 -0.43190 -0.26083
vn 0.13084 0.55112 -0.82410
vn 0.82664 -0.54958 -0.12097
vn -0.39340 0.00660 0.91934
vn 0.82817 0.53858 -0.15512
vn 0.82664 -0.54958 -0.12097
vn 0.02608 -0.49624 -0.86779
vn 0.06698 0.47104 -0.87957
vn 0.82817 0.53858 -0.15512
vn -0.54805 0.76386 -0.34083
vn -0.34588 -0.40790 0.84498
vn -0.54805 0.76386 -0.34083
vn 0.66157 0.08365 -0.74520
vn -0.73889 0.66007 -0.13546
vn -0.30886 0.01786 0.95094
vn -0.42308 -0.68112 -0.59756
vn -0.73889 0.66007 -0.13546
vn 0.64051 -0.00246 -0.76795
vn -0.42308 -0.68112 -0.59756
vn -0.42308 -0.68112 -0.59756
vn 0.00729 -0.56652 0.82401
vn -0.27279 0.32557 0.90531
vn -0.47053 0.79443 -0.38404
vn -0.42308 -0.68112 -0.59756
vn 0.67131 -0.14523 -0.72681
vn -0.47053 0.79443 -0.38404
vn 0.82817 0.53858 -0.15512
vn -0.29169 -0.08718 0.95253
vn 0.64209 -0.76481 0.05286
vn 0.82817 0.53858 -0.15512
vn -0.25649 0.72470 -0.63955
vn 0.02608 -0.49624 -0.86779
vn 0.64209 -0.76481 0.05286
vn -0.51174 0.55328 -0.65727
vn 0.14166 0.49915 0.85486
vn 0.19795 -0.50668 0.83910
vn -0.87488 -0.44694 -0.18662
vn -0.22753 0.51380 -0.82719
vn 0.08675 -0.42948 -0.89890
vn -0.87488 -0.44694 -0.18662
vn -0.53240 0.72436 -0.43801
vn 0.10360 -0.55176 0.82755
vn -0.20666 0.61828 -0.75830
vn 0.28602 0.31470 -0.90508
vn 0.15333 0.49525 0.85512
vn 0.05825 -0.45850 0.88679
vn 0.93891 0.27709 -0.20411
vn -0.01719 0.44570 -0.89501
vn -0.32564 -0.52833 -0.78411
vn 0.93891 0.27709 -0.20411
vn 0.37728 0.14192 -0.91516
vn -0.00483 -0.47878 0.87792
vn 0.07516 0.41361 -0.90735
vn -0.45410 0.84855 -0.27159
vn 0.32397 -0.74651 0.58118
vn -0.34372 0.75346 -0.56049
vn 0.29943 -0.22517 -0.92717
vn 0.30764 -0.72884 0.61168
vn 0.29943 -0.22517 -0.92717
vn -0.37075 0.83494 -0.40672
vn 0.93891 0.27709 -0.20411
vn 0.06294 -0.55730 0.82792
vn 0.15333 0.49525 0.85512
vn 0.67100 -0.30626 -0.67525
vn 0.93891 0.27709 -0.20411
vn -0.17268 -0.46399 0.86885
vn -0.32564 -0.52833 -0.78411
vn 0.67100 -0.30626 -0.67525
vn -0.87488 -0.44694 -0.18662
vn -0.01654 -0.54918 0.83554
vn 0.14166 0.49915 0.85486
vn 0.34334 0.21666 -0.91388
vn -0.87488 -0.44694 -0.18662
vn -0.27415 0.72810 -0.62826
vn 0.08675 -0.42948 -0.89890
vn 0.34334 0.21666 -0.91388
vn -0.13947 -0.11014 -0.98408
vn 0.97452 0.15244 -0.16457
vn 0.34409 0.67021 0.65759
vn -0.77380 -0.61199 0.16337
vn -0.13947 -0.11014 -0.98408
vn -0.95387 0.26898 0.13337
vn -0.39080 -0.84997 -0.35330
vn -0.77380 -0.61199 0.16337
vn -0.29512 -0.95367 0.05842
vn 0.98581 0.05374 -0.15900
vn 0.38281 0.76743 0.51431
vn -0.29512 -0.95367 0.05842
vn 0.91882 0.35594 -0.17051
vn -0.29636 -0.50229 -0.81233
vn 0.33771 0.49110 0.80297
vn 0.06294 -0.55730 0.82792
vn 0.67100 -0.30626 -0.67525
vn 0.39437 0.42909 0.81262
vn -0.17268 -0.46399 0.86885
vn -0.30476 -0.52452 -0.79498
vn 0.67100 -0.30626 -0.67525
vn 0.33771 0.49110 0.80297
vn 0.98581 0.05374 -0.15900
vn -0.18915 -0.97721 0.09638
vn 0.39437 0.42909 0.81262
vn 0.91882 0.35594 -0.17051
vn -0.30476 -0.52452 -0.79498
vn -0.18915 -0.97721 0.09638
vn -0.32118 -0.50807 -0.79919
vn -0.01654 -0.54918 0.83554
vn 0.28859 0.54025 0.79047
vn 0.34334 0.21666 -0.91388
vn -0.28388 -0.54467 -0.78914
vn -0.27415 0.72810 -0.62826
vn 0.34334 0.21666 -0.91388
vn -0.32118 -0.50807 -0.79919
vn 0.97452 0.15244 -0.16457
vn 0.28859 0.54025 0.79047
vn -0.77380 -0.61199 0.16337
vn -0.28388 -0.54467 -0.78914
vn -0.95387 0.26898 0.13337
vn -0.77380 -0.61199 0.16337
vn 0.48161 0.87587 -0.03004
vn 0.43801 -0.89630 0.06926
vn -0.39537 0.12087 0.91054
vn 0.48161 0.87587 -0.03004
vn -0.96150 -0.26818 0.05998
vn -0.09064 0.91998 -0.38135
vn -0.39537 0.12087 0.91054
vn 0.39079 0.88969 -0.23609
vn -0.06107 -0.78728 0.61356
vn 0.65390 -0.75548 -0.04079
vn 0.26508 0.87858 -0.39728
vn -0.96150 -0.26818 0.05998
vn -0.73385 -0.67777 0.04577
vn 0.12678 -0.95572 0.26555
vn 0.90764 -0.41591 -0.05662
vn 0.22253 0.51343 -0.82878
vn -0.73385 -0.67777 0.04577
vn -0.11614 0.98952 0.08577
vn 0.22253 0.51343 -0.82878
vn -0.73385 -0.67777 0.04577
vn -0.04322 -0.77861 0.62602
vn 0.90764 -0.41591 -0.05662
vn -0.27690 0.55127 -0.78704
vn -0.73385 -0.67777 0.04577
vn -0.03008 0.86493 -0.50099
vn 0.47681 0.82936 -0.29124
vn -0.40197 0.00526 0.91564
vn -0.06107 -0.78728 0.61356
vn 0.32473 0.83894 -0.43673
vn -0.29757 -0.73136 -0.61365
vn -0.27690 0.55127 -0.78704
vn -0.16996 0.31364 0.93421
vn -0.04322 -0.77861 0.62602
vn -0.55380 -0.81310 -0.17938
vn 0.18051 0.69684 -0.69414
vn -0.55380 -0.81310 -0.17938
vn 0.64548 0.75171 -0.13521
vn -0.46192 -0.19646 0.86489
vn 0.87012 -0.29921 -0.39162
vn 0.64548 0.75171 -0.13521
vn -0.29757 -0.73136 -0.61365
vn 0.19292 0.62373 -0.75745
vn 0.87012 -0.29921 -0.39162
vn -0.55380 -0.81310 -0.17938
vn -0.37092 -0.51688 0.77152
vn -0.16996 0.31364 0.93421
vn -0.30823 0.79938 -0.51574
vn -0.55380 -0.81310 -0.17938
vn 0.67386 0.38167 -0.63265
vn -0.30823 0.79938 -0.51574
vn -0.83115 0.54785 0.09513
vn 0.21254 0.60846 0.76459
vn 0.98014 0.11298 -0.16300
vn -0.35287 -0.47519 -0.80603
vn -0.83115 0.54785 0.09513
vn -0.23624 -0.58816 -0.77347
vn -0.18126 -0.97888 0.09451
vn 0.61679 -0.78713 0.00015
vn 0.19077 0.62640 0.75580
vn 0.91531 0.36526 -0.16967
vn 0.61679 -0.78713 0.00015
vn -0.95947 0.24704 0.13559
vn -0.24832 -0.57751 -0.77771
vn 0.63841 -0.76825 0.04711
vn 0.19077 0.62640 0.75580
vn -0.17263 -0.41040 0.89542
vn 0.63841 -0.76825 0.04711
vn -0.25649 0.72470 -0.63955
vn -0.24832 -0.57751 -0.77771
vn -0.47053 0.79443 -0.38404
vn 0.21254 0.60846 0.76459
vn 0.00729 -0.56652 0.82401
vn -0.35287 -0.47519 -0.80603
vn -0.47053 0.79443 -0.38404
vn -0.23624 -0.58816 -0.77347
vn 0.67945 -0.32634 -0.65716
vn -0.51167 0.83910 -0.18469
vn 0.37702 0.77386 0.50892
vn 0.00809 -0.59073 0.80683
vn -0.51154 -0.81393 -0.27539
vn -0.51167 0.83910 -0.18469
vn -0.38501 -0.77770 -0.49693
vn 0.21759 0.35591 -0.90884
vn 0.45410 -0.03629 -0.89021
vn 0.35368 0.76203 0.54241
vn -0.06788 -0.49692 0.86514
vn -0.59830 -0.36560 0.71300
vn 0.45410 -0.03629 -0.89021
vn 0.41517 0.78841 0.45391
vn -0.14922 0.69251 -0.70581
vn -0.59830 -0.36560 0.71300
vn -0.34064 0.48810 -0.80357
vn 0.37702 0.77386 0.50892
vn 0.07392 -0.71149 0.69880
vn -0.51154 -0.81393 -0.27539
vn -0.17351 0.64016 -0.74839
vn -0.38501 -0.77770 -0.49693
vn -0.34064 0.48810 -0.80357
vn 0.91851 0.39117 -0.05768
vn 0.07392 -0.71149 0.69880
vn -0.79065 -0.61029 0.04928
vn -0.17351 0.64016 -0.74839
vn -0.91291 -0.40417 0.05690
vn 0.23636 0.84961 -0.47149
vn 0.35368 0.76203 0.54241
vn 0.05395 -0.72417 0.68750
vn -0.59830 -0.36560 0.71300
vn 0.05230 0.78310 -0.61969
vn 0.41517 0.78841 0.45391
vn -0.59830 -0.36560 0.71300
vn 0.00647 0.96983 -0.24371
vn -0.93052 -0.36130 0.06004
vn 0.05395 -0.72417 0.68750
vn -0.04439 0.90175 -0.42997
vn 0.89162 0.44950 -0.05451
vn -0.36212 0.92286 -0.13115
vn -0.93052 -0.36130 0.06004
vn 0.26560 -0.76936 0.58099
vn -0.29094 0.88514 -0.36316
vn 0.89162 0.44950 -0.05451
vn 0.39273 0.10114 -0.91407
vn 0.91851 0.39117 -0.05768
vn 0.25157 -0.78847 0.56126
vn -0.79065 -0.61029 0.04928
vn 0.39273 0.10114 -0.91407
vn -0.91291 -0.40417 0.05690
vn -0.32429 0.81726 -0.47636
vn -0.15099 0.05527 0.98699
vn 0.74243 -0.66462 -0.08412
vn 0.81924 0.03569 -0.57234
vn 0.33462 0.87938 0.33871
vn -0.15099 0.05527 0.98699
vn -0.99297 0.10060 0.06242
vn 0.33462 0.87938 0.33871
vn -0.86728 -0.36982 -0.33326
vn 0.79805 -0.60049 -0.05034
vn 0.87945 0.05404 -0.47292
vn -0.86728 -0.36982 -0.33326
vn -0.44300 0.87313 0.20347
vn -0.56491 0.00667 0.82512
vn -0.00632 0.86973 0.49349
vn 0.64639 -0.76257 0.02582
vn -0.00632 0.86973 0.49349
vn -0.50019 0.66738 -0.55174
vn -0.95919 0.27174 -0.07823
vn -0.73733 -0.59279 -0.32395
vn 0.69079 -0.71490 0.10826
vn -0.31940 0.20315 -0.92559
vn -0.73733 -0.59279 -0.32395
vn -0.46021 0.85918 0.22366
vn -0.31940 0.20315 -0.92559
vn -0.05105 0.37764 -0.92454
vn 0.34697 -0.89801 0.27052
vn -0.05105 0.37764 -0.92454
vn -0.39420 0.89490 0.20920
vn -0.39610 0.45868 0.79544
vn 0.36530 -0.91754 0.15711
vn -0.39610 0.45868 0.79544
vn -0.30553 0.82087 -0.48253
vn -0.98228 -0.00017 -0.18741
vn -0.98229 0.00006 -0.18736
vn -0.49111 -0.85066 0.18760
vn 0.49089 0.85076 -0.18771
vn 0.60695 0 -0.79474
vn -0.60741 0.00046 0.79439
vn -0.59657 -0.54086 -0.59294
vn 0.22918 0.35281 0.90720
vn -0.59657 -0.54086 -0.59294
vn 0.92287 0.32425 -0.20776
vn 0.30359 0.52565 0.79469
vn 0.22382 0.60204 -0.76645
vn -0.12616 0.67574 -0.72626
vn 0.38421 0.79390 0.47129
vn 0.12655 -0.67548 0.72644
vn 0.12645 -0.67603 0.72594
vn -0.12616 0.67574 -0.72626
vn 0.93297 0.35995 0
vn 0.12553 -0.67537 0.72672
vn 0.12655 -0.67548 0.72644
vn -0.49111 0.85066 0.18759
vn 0.49093 -0.85070 -0.18786

# No. texture coordinates 0:

# No. faces 523:
f 25//557 6//536 7//538 5//534 4//532
f 4//533 5//535 28//560 27//559 26//558
f 6//537 31//563 30//562 29//561 7//539
f 15//547 16//548 18//550 17//549
f 20//552 21//553 14//546 13//545
f 24//556 23//555 16//548 15//547
f 20//552 23//555 24//556 21//553
f 7//538 15//547 17//549 5//534
f 25//557 11//543 12//544 6//536
f 10//542 11//543 25//557 4//532
f 27//559 19//551 9//541 26//558
f 28//560 22//554 19//551 27//559
f 17//549 22//554 28//560 5//535
f 26//558 9//541 10//542 4//533
f 29//561 24//556 15//547 7//539
f 30//562 21//553 24//556 29//561
f 31//563 14//546 21//553 30//562
f 12//544 14//546 31//563 6//537
f 33//565 18//550 16//548 32//564
f 50//590 36//569 37//570 49//588 48//587
f 35//568 1//524 3//530 38//571 51//591
f 10//542 9//541 8//540 40//574 41//575
f 11//543 10//542 41//575 42//576
f 43//577 12//544 11//543 42//576
f 13//545 14//546 12//544 43//577 44//578
f 52//592 40//574 8//540 45//579
f 47//585 53//593 37//570 36//569 46//582
f 55//595 54//594 47//586 46//584
f 13//545 44//578 38//571 3//530
f 50//590 48//587 34//566 35//568
f 49//588 39//572 34//567 48//587
f 37//570 52//592 45//579 49//588
f 35//568 51//591 36//569 50//590
f 38//571 55//595 46//584 51//591
f 53//593 47//585 42//576 41//575
f 47//586 54//594 43//577 42//576
f 52//592 37//570 53//593 40//574
f 55//595 38//571 44//578 54//594
f 45//581 39//573 49//589
f 46//583 36//569 51//591
f 41//575 40//574 53//593
f 44//578 43//577 54//594
f 524//1945 57//599 2//527 56//596 523//1944
f 1//526 59//604 525//1946 58//602 3//531
f 33//565 32//564 60//608 526//1948 61//610
f 57//601 63//616 64//618 62//612 2//529
f 528//1952 56//598 2//528 62//615 527//1950
f 9//541 19//551 66//622 65//620 8//540
f 22//554 67//624 66//622 19//551
f 18//550 68//626 67//624 22//554 17//549
f 58//602 69//628 20//552 13//545 3//531
f 32//564 16//548 23//555 70//632 60//608
f 68//626 18//550 33//565 61//610
f 530//1960 529//1956 64//618 63//616
f 70//635 23//555 20//552 69//631
f 35//568 34//566 71//636 59//607 1//525
f 34//567 39//572 72//640 531//1964 71//639
f 8//540 65//620 72//640 39//572 45//580
f 76//648 75//646 73//642 74//644
f 73//642 78//653 77//650 74//644
f 79//656 80//660 75//646 76//648
f 78//655 82//666 81//664 77//652
f 79//659 84//672 83//668 80//663
f 87//680 86//678 85//676 88//684
f 89//688 90//692 87//683 88//687
f 94//708 93//704 91//696 92//700
f 97//720 98//724 96//716 95//712
f 82//666 99//728 100//732 81//664
f 86//678 102//740 101//736 85//676
f 91//699 83//671 84//675 92//703
f 89//691 93//707 94//711 90//695
f 99//731 95//715 96//719 100//735
f 97//723 101//739 102//743 98//727
f 106//752 103//744 104//746 105//748
f 110//766 109//764 108//760 107//756
f 103//744 109//764 110//766 104//746
f 114//777 113//775 112//772 111//768
f 116//781 113//775 114//777 115//779
f 120//790 119//788 118//786 117//784
f 122//796 119//788 120//790 121//792
f 125//807 126//809 124//803 123//799
f 108//763 128//813 127//811 107//759
f 124//806 129//815 130//818 123//802
f 132//825 131//821 106//755 105//751
f 135//837 133//829 134//833 136//840
f 139//848 140//852 138//846 137//843
f 141//856 142//860 140//855 139//851
f 143//864 144//867 142//863 141//859
f 112//774 146//873 145//869 111//771
f 147//877 148//881 122//798 121//795
f 118//786 144//867 143//864 117//784
f 150//889 149//885 126//809 125//807
f 154//904 153//901 151//893 152//897
f 128//813 155//908 156//911 127//811
f 146//876 148//884 147//880 145//872
f 157//915 158//919 116//781 115//779
f 160//925 159//923 158//922 157//918
f 162//929 159//923 160//925 161//927
f 138//846 162//929 161//927 137//843
f 129//816 135//838 136//841 130//819
f 133//832 131//824 132//828 134//836
f 151//896 149//888 150//892 152//900
f 155//909 153//902 154//907 156//914
f 166//936 163//931 164//933 165//934
f 170//948 169//946 168//942 167//940
f 163//931 169//946 170//948 164//933
f 174//954 173//952 172//950 171//949
f 176//957 173//952 174//954 175//955
f 180//966 179//964 178//962 177//961
f 182//968 179//964 180//966 181//967
f 185//976 186//977 184//972 183//970
f 168//945 188//980 187//979 167//941
f 184//975 189//982 190//986 183//971
f 192//992 191//988 166//939 165//935
f 195//1000 193//994 194//998 196//1004
f 199//1009 200//1010 198//1007 197//1006
f 201//1012 202//1013 200//1010 199//1009
f 203//1015 204//1016 202//1013 201//1012
f 172//950 206//1020 205//1018 171//949
f 207//1024 208//1026 182//968 181//967
f 178//962 204//1016 203//1015 177//961
f 210//1034 209//1030 186//977 185//976
f 214//1046 213//1042 211//1036 212//1040
f 188//980 215//1048 216//1052 187//979
f 206//1023 208//1029 207//1025 205//1019
f 217//1054 218//1056 176//960 175//956
f 220//1062 219//1060 218//1059 217//1055
f 222//1064 219//1060 220//1062 221//1063
f 198//1007 222//1064 221//1063 197//1006
f 226//1070 224//1067 223//1066 225//1069
f 229//1075 230//1076 228//1073 227//1072
f 231//1078 232//1080 230//1076 229//1075
f 224//1067 234//1084 233//1083 223//1066
f 235//1087 236//1089 226//1070 225//1069
f 228//1073 238//1094 237//1093 227//1072
f 239//1098 240//1099 232//1082 231//1079
f 234//1084 242//1102 241//1101 233//1083
f 243//1104 244//1106 236//1092 235//1088
f 238//1097 246//1113 245//1110 237//1093
f 250//1124 248//1119 247//1117 249//1123
f 253//1129 254//1131 252//1127 251//1126
f 255//1135 256//1138 254//1134 253//1130
f 248//1122 258//1144 257//1142 247//1118
f 262//1156 260//1150 259//1148 261//1154
f 265//1167 266//1170 264//1163 263//1160
f 270//1184 268//1177 267//1174 269//1181
f 273//1194 274//1196 272//1190 271//1188
f 275//1200 276//1203 240//1099 239//1098
f 242//1102 278//1209 277//1207 241//1101
f 279//1213 280//1215 250//1124 249//1123
f 252//1127 282//1222 281//1219 251//1126
f 246//1116 266//1173 265//1169 245//1112
f 259//1149 260//1153 244//1109 243//1105
f 263//1162 264//1166 256//1141 255//1137
f 258//1147 262//1159 261//1155 257//1143
f 268//1180 276//1206 275//1202 267//1176
f 277//1208 278//1212 274//1199 273//1195
f 281//1221 282//1225 270//1187 269//1183
f 272//1193 280//1218 279//1214 271//1189
f 189//985 195//1003 196//1005 190//987
f 193//997 191//991 192//993 194//999
f 211//1039 209//1033 210//1035 212//1041
f 215//1051 213//1045 214//1047 216//1053
f 286//1232 283//1226 284//1228 285//1229
f 288//1238 287//1236 290//1242 289//1239
f 283//1226 287//1236 288//1238 284//1228
f 292//1248 291//1246 294//1252 293//1250
f 296//1258 291//1246 292//1248 295//1254
f 298//1264 297//1262 300//1268 299//1266
f 302//1272 297//1262 298//1264 301//1270
f 303//1274 304//1276 306//1282 305//1278
f 290//1245 308//1288 307//1286 289//1241
f 306//1285 309//1290 310//1294 305//1281
f 312//1299 311//1296 286//1235 285//1231
f 315//1310 313//1303 314//1306 316//1314
f 317//1316 318//1318 320//1322 319//1320
f 321//1324 322//1326 318//1318 317//1316
f 323//1328 324//1330 322//1326 321//1324
f 294//1252 326//1336 325//1332 293//1250
f 327//1340 328//1344 302//1272 301//1270
f 300//1268 324//1330 323//1328 299//1266
f 330//1352 329//1348 304//1276 303//1274
f 332//1359 331//1355 333//1362 334//1366
f 308//1288 335//1369 336//1373 307//1286
f 326//1339 328//1347 327//1343 325//1335
f 337//1376 338//1380 296//1261 295//1257
f 340//1386 339//1384 338//1383 337//1379
f 342//1390 339//1384 340//1386 341//1388
f 320//1322 342//1390 341//1388 319//1320
f 343//1392 344//1394 346//1398 345//1396
f 350//1406 348//1402 347//1400 349//1404
f 351//1408 352//1411 350//1406 349//1404
f 346//1398 354//1417 353//1415 345//1396
f 355//1419 356//1423 344//1394 343//1392
f 348//1402 358//1431 357//1427 347//1400
f 359//1434 360//1436 352//1414 351//1410
f 354//1417 362//1440 361//1438 353//1415
f 363//1442 364//1446 356//1426 355//1422
f 358//1433 366//1454 365//1450 357//1430
f 370//1467 368//1461 367//1457 369//1465
f 371//1469 372//1473 374//1479 373//1477
f 375//1481 376//1484 372//1476 371//1472
f 368//1464 378//1492 377//1488 367//1460
f 379//1496 380//1500 382//1508 381//1504
f 386//1523 384//1515 383//1512 385//1519
f 387//1526 388//1529 390//1536 389//1533
f 394//1552 392//1544 391//1540 393//1548
f 395//1556 396//1559 360//1436 359//1434
f 362//1440 398//1567 397//1563 361//1438
f 399//1571 400//1575 370//1467 369//1465
f 374//1479 402//1582 401//1579 373//1477
f 366//1455 386//1524 385//1522 365//1453
f 381//1507 382//1511 364//1449 363//1445
f 383//1513 384//1518 376//1487 375//1482
f 378//1495 380//1503 379//1499 377//1491
f 390//1539 396//1562 395//1557 389//1534
f 397//1566 398//1570 394//1555 393//1551
f 401//1580 402//1585 388//1532 387//1527
f 392//1547 400//1578 399//1574 391//1543
f 406//1594 404//1589 403//1586 405//1592
f 407//1597 408//1601 410//1606 409//1604
f 414//1615 412//1611 411//1607 413//1613
f 415//1616 416//1620 418//1625 417//1623
f 417//1624 418//1627 406//1596 405//1593
f 410//1606 414//1615 413//1613 409//1604
f 422//1637 420//1631 419//1628 421//1635
f 423//1640 424//1644 426//1650 425//1647
f 426//1652 428//1655 427//1653 425//1649
f 429//1658 430//1662 422//1637 421//1635
f 434//1672 432//1667 431//1665 433//1669
f 435//1676 436//1678 438//1683 437//1680
f 438//1685 440//1690 439//1686 437//1682
f 441//1693 442//1696 434//1675 433//1671
f 446//1709 444//1704 443//1700 445//1707
f 447//1710 448//1714 450//1719 449//1717
f 451//1720 452//1722 416//1621 415//1619
f 412//1612 454//1725 453//1723 411//1610
f 455//1727 456//1731 448//1716 447//1713
f 444//1706 458//1739 457//1735 443//1703
f 459//1743 460//1747 408//1603 407//1600
f 404//1589 462//1754 461//1751 403//1586
f 466//1767 464//1760 463//1757 465//1764
f 467//1771 468//1775 470//1782 469//1778
f 474//1795 472//1788 471//1785 473//1792
f 475//1797 476//1801 478//1808 477//1804
f 479//1810 480//1813 474//1795 473//1792
f 478//1809 482//1819 481//1815 477//1807
f 483//1821 484//1824 480//1813 479//1810
f 482//1820 486//1832 485//1828 481//1818
f 487//1835 488//1839 424//1646 423//1643
f 420//1634 490//1845 489//1842 419//1630
f 491//1848 492//1851 442//1699 441//1695
f 440//1692 494//1858 493//1854 439//1689
f 485//1831 486//1834 436//1678 435//1676
f 432//1667 484//1827 483//1823 431//1665
f 495//1861 496//1865 446//1709 445//1707
f 450//1719 498//1872 497//1868 449//1717
f 502//1886 500//1880 499//1876 501//1882
f 503//1888 504//1892 506//1898 505//1895
f 507//1900 508//1903 452//1722 451//1720
f 454//1725 510//1909 509//1905 453//1723
f 493//1857 494//1859 488//1840 487//1838
f 490//1845 492//1851 491//1848 489//1842
f 511//1912 512//1916 430//1664 429//1661
f 428//1655 514//1922 513//1919 427//1653
f 515//1925 516//1927 512//1918 511//1915
f 514//1922 518//1933 517//1930 513//1919
f 518//1935 520//1938 519//1936 517//1932
f 521//1940 522//1942 516//1927 515//1925
f 519//1936 520//1938 476//1803 475//1800
f 472//1791 522//1942 521//1940 471//1787
f 463//1759 464//1763 456//1734 455//1730
f 458//1742 468//1777 467//1774 457//1738
f 462//1754 466//1770 465//1766 461//1751
f 469//1781 470//1784 460//1750 459//1746
f 498//1875 504//1894 503//1891 497//1871
f 499//1879 500//1881 496//1866 495//1864
f 506//1898 508//1903 507//1900 505//1895
f 509//1908 510//1910 502//1887 501//1885
f 309//1293 315//1313 316//1315 310//1295
f 313//1304 311//1297 312//1302 314//1309
f 333//1365 329//1351 330//1353 334//1367
f 335//1372 331//1358 332//1360 336//1374
f 285//1229 284//1228 523//1944 56//596
f 524//1945 288//1238 289//1239 57//599
f 284//1228 288//1238 524//1945 523//1944
f 525//1947 292//1249 293//1251 58//603
f 295//1256 292//1249 525//1947 59//606
f 526//1949 298//1265 299//1267 61//611
f 301//1271 298//1265 526//1949 60//609
f 64//619 303//1275 305//1280 62//614
f 289//1240 307//1287 63//617 57//600
f 305//1279 310//1295 527//1951 62//613
f 528//1955 312//1301 285//1230 56//597
f 316//1315 314//1308 528//1954 527//1951
f 66//623 317//1317 319//1321 65//621
f 67//625 321//1325 317//1317 66//623
f 68//627 323//1329 321//1325 67//625
f 293//1251 325//1334 69//630 58//603
f 70//634 327//1342 301//1271 60//609
f 299//1267 323//1329 68//627 61//611
f 529//1959 330//1354 303//1275 64//619
f 530//1963 332//1361 334//1368 529//1958
f 307//1287 336//1375 530//1962 63//617
f 325//1333 327//1341 70//633 69//629
f 71//638 337//1378 295//1255 59//605
f 531//1965 340//1387 337//1377 71//637
f 341//1389 340//1387 531//1965 72//641
f 319//1321 341//1389 72//641 65//621
f 75//647 343//1393 345//1397 73//643
f 349//1405 347//1401 76//649 74//645
f 77//651 351//1409 349//1405 74//645
f 345//1397 353//1416 78//654 73//643
f 80//662 355//1421 343//1393 75//647
f 347//1401 357//1429 79//658 76//649
f 81//665 359//1435 351//1409 77//651
f 353//1416 361//1439 82//667 78//654
f 83//670 363//1444 355//1420 80//661
f 357//1428 365//1452 84//674 79//657
f 369//1466 367//1459 88//686 85//677
f 87//682 371//1471 373//1478 86//679
f 90//694 375//1483 371//1470 87//681
f 367//1458 377//1490 89//690 88//685
f 93//706 379//1498 381//1506 91//698
f 385//1521 383//1514 94//710 92//702
f 98//726 387//1528 389//1535 96//718
f 393//1550 391//1542 97//722 95//714
f 100//734 395//1558 359//1435 81//665
f 361//1439 397//1565 99//730 82//667
f 101//738 399//1573 369//1466 85//677
f 373//1478 401//1581 102//742 86//679
f 365//1451 385//1520 92//701 84//673
f 91//697 381//1505 363//1443 83//669
f 94//709 383//1513 375//1482 90//693
f 377//1489 379//1497 93//705 89//689
f 389//1534 395//1557 100//733 96//717
f 99//729 397//1564 393//1549 95//713
f 102//741 401//1580 387//1527 98//725
f 391//1541 399//1572 101//737 97//721
f 405//1593 403//1588 105//750 104//747
f 106//754 407//1599 409//1605 103//745
f 109//765 413//1614 411//1609 108//762
f 415//1618 417//1624 110//767 107//758
f 110//767 417//1624 405//1593 104//747
f 409//1605 413//1614 109//765 103//745
f 113//776 421//1636 419//1629 112//773
f 423//1642 425//1648 114//778 111//770
f 425//1648 427//1654 115//780 114//778
f 116//783 429//1660 421//1636 113//776
f 119//789 433//1670 431//1666 118//787
f 435//1677 437//1681 120//791 117//785
f 437//1681 439//1688 121//794 120//791
f 122//797 441//1694 433//1670 119//789
f 126//810 445//1708 443//1702 124//805
f 447//1712 449//1718 125//808 123//801
f 127//812 451//1721 415//1617 107//757
f 411//1608 453//1724 128//814 108//761
f 130//820 455//1729 447//1711 123//800
f 443//1701 457//1737 129//817 124//804
f 131//823 459//1745 407//1598 106//753
f 403//1587 461//1753 132//827 105//749
f 465//1764 463//1757 136//842 134//835
f 135//839 467//1773 469//1780 133//831
f 140//854 473//1794 471//1786 138//847
f 475//1799 477//1806 139//850 137//845
f 142//862 479//1812 473//1793 140//853
f 477//1805 481//1817 141//858 139//849
f 144//868 483//1822 479//1811 142//861
f 481//1816 485//1830 143//866 141//857
f 145//871 487//1837 423//1641 111//769
f 419//1629 489//1844 146//875 112//773
f 148//883 491//1850 441//1694 122//797
f 439//1687 493//1856 147//879 121//793
f 143//865 485//1829 435//1677 117//785
f 431//1666 483//1822 144//868 118//787
f 149//887 495//1863 445//1708 126//810
f 449//1718 497//1870 150//891 125//808
f 153//903 501//1884 499//1878 151//895
f 503//1890 505//1897 154//906 152//899
f 156//913 507//1902 451//1721 127//812
f 453//1724 509//1907 155//910 128//814
f 147//878 493//1855 487//1836 145//870
f 489//1843 491//1849 148//882 146//874
f 158//921 511//1914 429//1659 116//782
f 427//1654 513//1921 157//917 115//780
f 159//924 515//1926 511//1913 158//920
f 513//1920 517//1931 160//926 157//916
f 517//1931 519//1937 161//928 160//926
f 162//930 521//1941 515//1926 159//924
f 161//928 519//1937 475//1798 137//844
f 471//1786 521//1941 162//930 138//847
f 136//841 463//1758 455//1728 130//819
f 457//1736 467//1772 135//838 129//816
f 461//1752 465//1765 134//834 132//826
f 133//830 469//1779 459//1744 131//822
f 497//1869 503//1889 152//898 150//890
f 151//894 499//1877 495//1862 149//886
f 505//1896 507//1901 156//912 154//905
f 155//909 509//1906 501//1883 153//902
f 283//1227 286//1234 165//934 164//933
f 166//938 404//1591 406//1595 163//932
f 418//1626 416//1622 168//944 169//947
f 167//940 290//1244 287//1237 170//948
f 170//948 287//1237 283//1227 164//933
f 406//1595 418//1626 169//947 163//932
f 426//1651 424//1645 172//951 173//953
f 171//949 294//1253 291//1247 174//954
f 291//1247 296//1260 175//955 174//954
f 176//959 428//1657 426//1651 173//953
f 438//1684 436//1679 178//963 179//965
f 177//961 300//1269 297//1263 180//966
f 297//1263 302//1273 181//967 180//966
f 182//969 440//1691 438//1684 179//965
f 450//1719 448//1714 184//974 186//978
f 183//970 306//1284 304//1277 185//976
f 187//979 308//1289 290//1243 167//941
f 416//1621 452//1722 188//981 168//943
f 190//986 309//1292 306//1283 183//971
f 448//1715 456//1733 189//984 184//973
f 191//990 462//1756 404//1590 166//937
f 286//1233 311//1298 192//992 165//935
f 313//1305 315//1312 196//1004 194//998
f 195//1002 464//1762 466//1769 193//996
f 478//1809 476//1802 198//1008 200//1011
f 197//1006 320//1323 318//1319 199//1009
f 202//1014 482//1819 478//1809 200//1011
f 318//1319 322//1327 201//1012 199//1009
f 204//1017 486//1833 482//1819 202//1014
f 322//1327 324//1331 203//1015 201//1012
f 205//1018 326//1338 294//1253 171//949
f 424//1645 488//1841 206//1022 172//951
f 208//1028 494//1860 440//1691 182//969
f 302//1273 328//1346 207//1024 181//967
f 203//1015 324//1331 300//1269 177//961
f 436//1679 486//1833 204//1017 178//963
f 209//1032 498//1874 450//1719 186//978
f 304//1277 329//1350 210//1034 185//976
f 506//1898 504//1892 211//1038 213//1044
f 212//1040 333//1364 331//1357 214//1046
f 216//1052 335//1371 308//1289 187//979
f 452//1722 508//1903 215//1050 188//981
f 207//1025 328//1345 326//1337 205//1019
f 488//1840 494//1859 208//1027 206//1021
f 218//1058 514//1924 428//1656 176//958
f 296//1259 338//1382 217//1054 175//956
f 219//1061 518//1934 514//1923 218//1057
f 338//1381 339//1385 220//1062 217//1055
f 339//1385 342//1391 221//1063 220//1062
f 222//1065 520//1939 518//1934 219//1061
f 221//1063 342//1391 320//1323 197//1006
f 476//1802 520//1939 222//1065 198//1008
f 346//1399 344//1395 225//1069 223//1066
f 226//1071 430//1663 512//1917 224//1068
f 414//1615 410//1606 228//1074 230//1077
f 227//1072 348//1403 350//1407 229//1075
f 232//1081 412//1611 414//1615 230//1077
f 350//1407 352//1413 231//1078 229//1075
f 233//1083 354//1418 346//1399 223//1066
f 512//1917 516//1929 234//1086 224//1068
f 236//1091 422//1639 430//1663 226//1071
f 344//1395 356//1425 235//1087 225//1069
f 237//1093 358//1432 348//1403 227//1072
f 410//1606 408//1601 238//1096 228//1074
f 240//1100 454//1726 412//1611 232//1081
f 352//1412 360//1437 239//1098 231//1079
f 241//1101 362//1441 354//1418 233//1083
f 516//1928 522//1943 242//1103 234//1085
f 244//1108 420//1633 422//1638 236//1090
f 356//1424 364//1448 243//1104 235//1088
f 245//1110 366//1456 358//1432 237//1093
f 408//1602 460//1749 246//1115 238//1095
f 368//1463 370//1468 249//1123 247//1117
f 250//1125 432//1668 434//1674 248//1121
f 444//1704 446//1709 252//1128 254//1133
f 251//1126 374//1480 372//1475 253//1129
f 256//1140 458//1741 444//1705 254//1132
f 372//1474 376//1486 255//1135 253//1130
f 257//1142 378//1494 368//1462 247//1118
f 434//1673 442//1698 258//1146 248//1120
f 382//1510 380//1502 261//1154 259//1148
f 262//1158 492//1853 490//1847 260//1152
f 470//1782 468//1775 264//1165 266//1172
f 263//1160 384//1517 386//1525 265//1167
f 390//1538 388//1531 269//1181 267//1174
f 270//1186 500//1880 502//1886 268//1179
f 474//1795 480//1813 272//1192 274//1198
f 271//1188 392//1546 394//1554 273//1194
f 276//1205 510//1911 454//1726 240//1100
f 360//1437 396//1561 275//1200 239//1098
f 277//1207 398//1569 362//1441 241//1101
f 522//1943 472//1790 278//1211 242//1103
f 280//1217 484//1826 432//1668 250//1125
f 370//1468 400//1577 279//1213 249//1123
f 281//1219 402//1584 374//1480 251//1126
f 446//1709 496//1867 282//1224 252//1128
f 265//1168 386//1524 366//1455 245//1111
f 460//1748 470//1783 266//1171 246//1114
f 260//1151 490//1846 420//1632 244//1107
f 364//1447 382//1509 259//1149 243//1105
f 264//1164 468//1776 458//1740 256//1139
f 376//1485 384//1516 263//1161 255//1136
f 261//1155 380//1501 378//1493 257//1143
f 442//1697 492//1852 262//1157 258//1145
f 275//1201 396//1560 390//1537 267//1175
f 502//1887 510//1910 276//1204 268//1178
f 278//1210 472//1789 474//1796 274//1197
f 394//1553 398//1568 277//1208 273//1195
f 282//1223 496//1866 500//1881 270//1185
f 388//1530 402//1583 281//1220 269//1182
f 279//1214 400//1576 392//1545 271//1189
f 480//1814 484//1825 280//1216 272//1191
f 196//1005 315//1311 309//1291 190//987
f 456//1732 464//1761 195//1001 189//983
f 311//1297 313//1304 194//999 192//993
f 193//995 466//1768 462//1755 191//989
f 329//1349 333//1363 212//1041 210//1035
f 211//1037 504//1893 498//1873 209//1031
f 331//1356 335//1370 216//1053 214//1047
f 215//1049 508//1904 506//1899 213//1043
f 310//1295 316//1315 527//1951
f 314//1307 312//1300 528//1953
f 334//1367 330//1353 529//1957
f 336//1374 332//1360 530//1961


